Character,Unicode,Code
𠀧,0x20027,UKN
𠀲,0x20032,UKN
𠁀,0x20040,UKN
𠁂,0x20042,UKN
𠁔,0x20054,UKN
𠁟,0x2005f,UKN
𠁸,0x20078,UKN
𠃅,0x200c5,UKN
𠃣,0x200e3,UKN
𠃩,0x200e9,UKN
𠄩,0x20129,UKN
𠄻,0x2013b,UKN
𠄼,0x2013c,UKN
𠄽,0x2013d,UKN
𠅍,0x2014d,UKN
𠅎,0x2014e,UKN
𠆳,0x201b3,UKN
𠇍,0x201cd,UKN
𠇮,0x201ee,UKN
𠈭,0x2022d,UKN
𠉝,0x2025d,UKN
𠉞,0x2025e,UKN
𠉟,0x2025f,UKN
𠊚,0x2029a,UKN
𠊛,0x2029b,UKN
𠊝,0x2029d,UKN
𠊟,0x2029f,UKN
𠊡,0x202a1,UKN
𠋦,0x202e6,UKN
𠋺,0x202fa,UKN
𠌇,0x20307,UKN
𠍣,0x20363,UKN
𠍦,0x20366,UKN
𠍭,0x2036d,UKN
𠎨,0x203a8,UKN
𠎩,0x203a9,UKN
𠎪,0x203aa,UKN
𠎫,0x203ab,UKN
𠎬,0x203ac,UKN
𠏥,0x203e5,UKN
𠏲,0x203f2,UKN
𠏳,0x203f3,UKN
𠑈,0x20448,UKN
𠑬,0x2046c,UKN
𠓀,0x204c0,UKN
𠓁,0x204c1,UKN
𠓑,0x204d1,UKN
𠓨,0x204e8,UKN
𠕋,0x2054b,UKN
𠖈,0x20588,UKN
𠖯,0x205af,UKN
𠖰,0x205b0,UKN
𠖿,0x205bf,UKN
𠚢,0x206a2,UKN
𠞹,0x207b9,UKN
𠠊,0x2080a,UKN
𠢞,0x2089e,UKN
𠢟,0x2089f,UKN
𠤆,0x20906,UKN
𠦳,0x209b3,UKN
𠦻,0x209bb,UKN
𠨪,0x20a2a,UKN
𠫅,0x20ac5,UKN
𠫆,0x20ac6,UKN
𠫾,0x20afe,UKN
𠬠,0x20b20,UKN
𠮾,0x20bbe,UKN
𠮿,0x20bbf,UKN
𠯇,0x20bc7,UKN
𠯦,0x20be6,UKN
𠯪,0x20bea,UKN
𠯻,0x20bfb,UKN
𠯼,0x20bfc,UKN
𠯿,0x20bff,UKN
𠰁,0x20c01,UKN
𠰃,0x20c03,UKN
𠰌,0x20c0c,UKN
𠰘,0x20c18,UKN
𠰙,0x20c19,UKN
𠰚,0x20c1a,UKN
𠰩,0x20c29,UKN
𠰮,0x20c2e,UKN
𠰳,0x20c33,UKN
𠰺,0x20c3a,UKN
𠱄,0x20c44,UKN
𠱆,0x20c46,UKN
𠱈,0x20c48,UKN
𠱊,0x20c4a,UKN
𠱋,0x20c4b,UKN
𠱤,0x20c64,UKN
𠲖,0x20c96,UKN
𠲝,0x20c9d,UKN
𠲞,0x20c9e,UKN
𠲟,0x20c9f,UKN
𠲥,0x20ca5,UKN
𠲶,0x20cb6,UKN
𠲺,0x20cba,UKN
𠳐,0x20cd0,UKN
𠳒,0x20cd2,UKN
𠳗,0x20cd7,UKN
𠳙,0x20cd9,UKN
𠳚,0x20cda,UKN
𠳝,0x20cdd,UKN
𠳨,0x20ce8,UKN
𠳺,0x20cfa,UKN
𠳿,0x20cff,UKN
𠴊,0x20d0a,UKN
𠴍,0x20d0d,UKN
𠴑,0x20d11,UKN
𠴔,0x20d14,UKN
𠴗,0x20d17,UKN
𠴛,0x20d1b,UKN
𠴞,0x20d1e,UKN
𠴡,0x20d21,UKN
𠵱,0x20d71,UKN
𠶀,0x20d80,UKN
𠶁,0x20d81,UKN
𠶆,0x20d86,UKN
𠶇,0x20d87,UKN
𠶏,0x20d8f,UKN
𠶑,0x20d91,UKN
𠶓,0x20d93,UKN
𠶔,0x20d94,UKN
𠶗,0x20d97,UKN
𠶟,0x20d9f,UKN
𠶣,0x20da3,UKN
𠶤,0x20da4,UKN
𠸂,0x20e02,UKN
𠸍,0x20e0d,UKN
𠸓,0x20e13,UKN
𠸖,0x20e16,UKN
𠸗,0x20e17,UKN
𠸜,0x20e1c,UKN
𠸣,0x20e23,UKN
𠸦,0x20e26,UKN
𠸼,0x20e3c,UKN
𠹚,0x20e5a,UKN
𠹳,0x20e73,UKN
𠹴,0x20e74,UKN
𠹽,0x20e7d,UKN
𠹾,0x20e7e,UKN
𠺙,0x20e99,UKN
𠺳,0x20eb3,UKN
𠺵,0x20eb5,UKN
𠺶,0x20eb6,UKN
𠺷,0x20eb7,UKN
𠺾,0x20ebe,UKN
𠻀,0x20ec0,UKN
𠻁,0x20ec1,UKN
𠻃,0x20ec3,UKN
𠻓,0x20ed3,UKN
𠻗,0x20ed7,UKN
𠻨,0x20ee8,UKN
𠻵,0x20ef5,UKN
𠼦,0x20f26,UKN
𠼪,0x20f2a,UKN
𠼯,0x20f2f,UKN
𠼽,0x20f3d,UKN
𠼾,0x20f3e,UKN
𠽄,0x20f44,UKN
𠽆,0x20f46,UKN
𠽋,0x20f4b,UKN
𠽍,0x20f4d,UKN
𠽐,0x20f50,UKN
𠽔,0x20f54,UKN
𠽖,0x20f56,UKN
𠽮,0x20f6e,UKN
𠾒,0x20f92,UKN
𠾔,0x20f94,UKN
𠾕,0x20f95,UKN
𠾦,0x20fa6,UKN
𠾿,0x20fbf,UKN
𠿃,0x20fc3,UKN
𠿯,0x20fef,UKN
𠿲,0x20ff2,UKN
𡀂,0x21002,UKN
𡀨,0x21028,UKN
𡀯,0x2102f,UKN
𡀰,0x21030,UKN
𡀷,0x21037,UKN
𡀿,0x2103f,UKN
𡁹,0x21079,UKN
𡁾,0x2107e,UKN
𡂂,0x21082,UKN
𡂳,0x210b3,UKN
𡃊,0x210ca,UKN
𡃋,0x210cb,UKN
𡃍,0x210cd,UKN
𡃑,0x210d1,UKN
𡃞,0x210de,UKN
𡃹,0x210f9,UKN
𡃻,0x210fb,UKN
𡃿,0x210ff,UKN
𡄎,0x2110e,UKN
𡅳,0x21173,UKN
𡅷,0x21177,UKN
𡆫,0x211ab,UKN
𡈺,0x2123a,UKN
𡉦,0x21266,UKN
𡉽,0x2127d,UKN
𡊨,0x212a8,UKN
𡊰,0x212b0,UKN
𡊱,0x212b1,UKN
𡊲,0x212b2,UKN
𡋂,0x212c2,UKN
𡌢,0x21322,UKN
𡌽,0x2133d,UKN
𡌿,0x2133f,UKN
𡍙,0x21359,UKN
𡎛,0x2139b,UKN
𡎝,0x2139d,UKN
𡎟,0x2139f,UKN
𡎢,0x213a2,UKN
𡎦,0x213a6,UKN
𡏛,0x213db,UKN
𡏢,0x213e2,UKN
𡏦,0x213e6,UKN
𡏧,0x213e7,UKN
𡐘,0x21418,UKN
𡐚,0x2141a,UKN
𡑖,0x21456,UKN
𡑝,0x2145d,UKN
𡑩,0x21469,UKN
𡑱,0x21471,UKN
𡓃,0x214c3,UKN
𡓄,0x214c4,UKN
𡓮,0x214ee,UKN
𡕷,0x21577,UKN
𡗉,0x215c9,UKN
𡗋,0x215cb,UKN
𡗶,0x215f6,UKN
𡘯,0x2162f,UKN
𡛔,0x216d4,UKN
𡝖,0x21756,UKN
𡞕,0x21795,UKN
𡟱,0x217f1,UKN
𡠣,0x21823,UKN
𡢐,0x21890,UKN
𡢻,0x218bb,UKN
𡢼,0x218bc,UKN
𡢽,0x218bd,UKN
𡥙,0x21959,UKN
𡥚,0x2195a,UKN
𡥵,0x21975,UKN
𡦂,0x21982,UKN
𡦧,0x219a7,UKN
𡧲,0x219f2,UKN
𡨌,0x21a0c,UKN
𡨸,0x21a38,UKN
𡨹,0x21a39,UKN
𡨺,0x21a3a,UKN
𡬷,0x21b37,UKN
𡬼,0x21b3c,UKN
𡭧,0x21b67,UKN
𡮇,0x21b87,UKN
𡮈,0x21b88,UKN
𡮔,0x21b94,UKN
𡮠,0x21ba0,UKN
𡮫,0x21bab,UKN
𡮳,0x21bb3,UKN
𡱩,0x21c69,UKN
𡲈,0x21c88,UKN
𡲤,0x21ca4,UKN
𡳎,0x21cce,UKN
𡳒,0x21cd2,UKN
𡳜,0x21cdc,UKN
𡳪,0x21cea,UKN
𡳵,0x21cf5,UKN
𡳺,0x21cfa,UKN
𡳽,0x21cfd,UKN
𡴯,0x21d2f,UKN
𡵆,0x21d46,UKN
𡶀,0x21d80,UKN
𡹡,0x21e61,UKN
𡽫,0x21f6b,UKN
𡾵,0x21fb5,UKN
𢀨,0x22028,UKN
𢀭,0x2202d,UKN
𢀲,0x22032,UKN
𢁍,0x2204d,UKN
𢂰,0x220b0,UKN
𢄂,0x22102,UKN
𢅆,0x22146,UKN
𢆁,0x22181,UKN
𢆥,0x221a5,UKN
𢆧,0x221a7,UKN
𢇡,0x221e1,UKN
𢈱,0x22231,UKN
𢌌,0x2230c,UKN
𢏑,0x223d1,UKN
𢏢,0x223e2,UKN
𢒎,0x2248e,UKN
𢖵,0x225b5,UKN
𢗃,0x225c3,UKN
𢗖,0x225d6,UKN
𢗼,0x225fc,UKN
𢘝,0x2261d,UKN
𢘾,0x2263e,UKN
𢙇,0x22647,UKN
𢙲,0x22672,UKN
𢚁,0x22681,UKN
𢚷,0x226b7,UKN
𢚸,0x226b8,UKN
𢚹,0x226b9,UKN
𢛨,0x226e8,UKN
𢜗,0x22717,UKN
𢜝,0x2271d,UKN
𢜠,0x22720,UKN
𢜢,0x22722,UKN
𢜫,0x2272b,UKN
𢝀,0x22740,UKN
𢝙,0x22759,UKN
𢝛,0x2275b,UKN
𢞂,0x22782,UKN
𢟒,0x227d2,UKN
𢟙,0x227d9,UKN
𢟨,0x227e8,UKN
𢟹,0x227f9,UKN
𢠅,0x22805,UKN
𢠨,0x22828,UKN
𢠩,0x22829,UKN
𢢆,0x22886,UKN
𢢇,0x22887,UKN
𢢯,0x228af,UKN
𢢲,0x228b2,UKN
𢣃,0x228c3,UKN
𢣆,0x228c6,UKN
𢤜,0x2291c,UKN
𢤞,0x2291e,UKN
𢧚,0x229da,UKN
𢩣,0x22a63,UKN
𢩤,0x22a64,UKN
𢩮,0x22a6e,UKN
𢩽,0x22a7d,UKN
𢩾,0x22a7e,UKN
𢪀,0x22a80,UKN
𢪏,0x22a8f,UKN
𢪱,0x22ab1,UKN
𢪲,0x22ab2,UKN
𢫈,0x22ac8,UKN
𢫝,0x22add,UKN
𢫟,0x22adf,UKN
𢫡,0x22ae1,UKN
𢬄,0x22b04,UKN
𢬗,0x22b17,UKN
𢬢,0x22b22,UKN
𢬣,0x22b23,UKN
𢬥,0x22b25,UKN
𢬧,0x22b27,UKN
𢬭,0x22b2d,UKN
𢭂,0x22b42,UKN
𢭄,0x22b44,UKN
𢭗,0x22b57,UKN
𢭩,0x22b69,UKN
𢭬,0x22b6c,UKN
𢭮,0x22b6e,UKN
𢭯,0x22b6f,UKN
𢭲,0x22b72,UKN
𢭴,0x22b74,UKN
𢭸,0x22b78,UKN
𢭹,0x22b79,UKN
𢭾,0x22b7e,UKN
𢮩,0x22ba9,UKN
𢮪,0x22baa,UKN
𢮭,0x22bad,UKN
𢮿,0x22bbf,UKN
𢯏,0x22bcf,UKN
𢯜,0x22bdc,UKN
𢯞,0x22bde,UKN
𢯢,0x22be2,UKN
𢯦,0x22be6,UKN
𢯰,0x22bf0,UKN
𢰺,0x22c3a,UKN
𢱓,0x22c53,UKN
𢳳,0x22cf3,UKN
𢴍,0x22d0d,UKN
𢴏,0x22d0f,UKN
𢴑,0x22d11,UKN
𢴞,0x22d1e,UKN
𢴾,0x22d3e,UKN
𢴿,0x22d3f,UKN
𢵋,0x22d4b,UKN
𢵮,0x22d6e,UKN
𢵯,0x22d6f,UKN
𢵼,0x22d7c,UKN
𢶒,0x22d92,UKN
𢶢,0x22da2,UKN
𢶷,0x22db7,UKN
𢶾,0x22dbe,UKN
𢶿,0x22dbf,UKN
𢷀,0x22dc0,UKN
𢷆,0x22dc6,UKN
𢷣,0x22de3,UKN
𢷲,0x22df2,UKN
𢷹,0x22df9,UKN
𢸚,0x22e1a,UKN
𢹅,0x22e45,UKN
𢹇,0x22e47,UKN
𢺹,0x22eb9,UKN
𢺺,0x22eba,UKN
𢼂,0x22f02,UKN
𢽙,0x22f59,UKN
𢽼,0x22f7c,UKN
𣁲,0x23072,UKN
𣃣,0x230e3,UKN
𣃱,0x230f1,UKN
𣅘,0x23158,UKN
𣅙,0x23159,UKN
𣅶,0x23176,UKN
𣆱,0x231b1,UKN
𣇊,0x231ca,UKN
𣇜,0x231dc,UKN
𣇞,0x231de,UKN
𣈕,0x23215,UKN
𣈗,0x23217,UKN
𣈘,0x23218,UKN
𣈙,0x23219,UKN
𣈜,0x2321c,UKN
𣋀,0x232c0,UKN
𣋚,0x232da,UKN
𣋽,0x232fd,UKN
𣌋,0x2330b,UKN
𣌝,0x2331d,UKN
𣎀,0x23380,UKN
𣎃,0x23383,UKN
𣐙,0x23419,UKN
𣑁,0x23441,UKN
𣑳,0x23473,UKN
𣒣,0x234a3,UKN
𣓿,0x234ff,UKN
𣔥,0x23525,UKN
𣖖,0x23596,UKN
𣘃,0x23603,UKN
𣘈,0x23608,UKN
𣘽,0x2363d,UKN
𣙩,0x23669,UKN
𣛟,0x236df,UKN
𣛠,0x236e0,UKN
𣛣,0x236e3,UKN
𣟮,0x237ee,UKN
𣠑,0x23811,UKN
𣥱,0x23971,UKN
𣦆,0x23986,UKN
𣦍,0x2398d,UKN
𣦎,0x2398e,UKN
𣦰,0x239b0,UKN
𣨰,0x23a30,UKN
𣩁,0x23a41,UKN
𣩂,0x23a42,UKN
𣫲,0x23af2,UKN
𣯡,0x23be1,UKN
𣰏,0x23c0f,UKN
𣲍,0x23c8d,UKN
𣳔,0x23cd4,UKN
𣳮,0x23cee,UKN
𣴓,0x23d13,UKN
𣴜,0x23d1c,UKN
𣵶,0x23d76,UKN
𣷭,0x23ded,UKN
𣷮,0x23dee,UKN
𣷴,0x23df4,UKN
𣷷,0x23df7,UKN
𣹓,0x23e53,UKN
𣺽,0x23ebd,UKN
𣻃,0x23ec3,UKN
𣻄,0x23ec4,UKN
𣻆,0x23ec6,UKN
𣼭,0x23f2d,UKN
𣼯,0x23f2f,UKN
𣼰,0x23f30,UKN
𣼸,0x23f38,UKN
𣼽,0x23f3d,UKN
𣾸,0x23fb8,UKN
𣾺,0x23fba,UKN
𣾻,0x23fbb,UKN
𣾼,0x23fbc,UKN
𤀏,0x2400f,UKN
𤀓,0x24013,UKN
𤁓,0x24053,UKN
𤁕,0x24055,UKN
𤂨,0x240a8,UKN
𤄯,0x2412f,UKN
𤄱,0x24131,UKN
𤅜,0x2415c,UKN
𤇊,0x241ca,UKN
𤇥,0x241e5,UKN
𤇧,0x241e7,UKN
𤇮,0x241ee,UKN
𤈊,0x2420a,UKN
𤈘,0x24218,UKN
𤈛,0x2421b,UKN
𤈜,0x2421c,UKN
𤈪,0x2422a,UKN
𤉒,0x24252,UKN
𤉗,0x24257,UKN
𤉚,0x2425a,UKN
𤉜,0x2425c,UKN
𤊰,0x242b0,UKN
𤋵,0x242f5,UKN
𤋾,0x242fe,UKN
𤌋,0x2430b,UKN
𤍄,0x24344,UKN
𤍇,0x24347,UKN
𤍊,0x2434a,UKN
𤍌,0x2434c,UKN
𤍎,0x2434e,UKN
𤍑,0x24351,UKN
𤍶,0x24376,UKN
𤎎,0x2438e,UKN
𤎒,0x24392,UKN
𤎔,0x24394,UKN
𤎕,0x24395,UKN
𤎜,0x2439c,UKN
𤏣,0x243e3,UKN
𤏧,0x243e7,UKN
𤏬,0x243ec,UKN
𤐝,0x2441d,UKN
𤐡,0x24421,UKN
𤑍,0x2444d,UKN
𤑟,0x2445f,UKN
𤒘,0x24498,UKN
𤓢,0x244e2,UKN
𤔯,0x2452f,UKN
𤗖,0x245d6,UKN
𤘁,0x24601,UKN
𤜯,0x2472f,UKN
𤝞,0x2475e,UKN
𤞑,0x24791,UKN
𤞻,0x247bb,UKN
𤟛,0x247db,UKN
𤢿,0x248bf,UKN
𤤰,0x24930,UKN
𤭸,0x24b78,UKN
𤯨,0x24be8,UKN
𤯩,0x24be9,UKN
𤯭,0x24bed,UKN
𤲂,0x24c82,UKN
𤳄,0x24cc4,UKN
𤳆,0x24cc6,UKN
𤳇,0x24cc7,UKN
𤳰,0x24cf0,UKN
𤴥,0x24d25,UKN
𤴪,0x24d2a,UKN
𤴬,0x24d2c,UKN
𤵖,0x24d56,UKN
𤵺,0x24d7a,UKN
𤶎,0x24d8e,UKN
𤶏,0x24d8f,UKN
𤶐,0x24d90,UKN
𤶑,0x24d91,UKN
𤷄,0x24dc4,UKN
𤷍,0x24dcd,UKN
𤷮,0x24dee,UKN
𤷱,0x24df1,UKN
𤺲,0x24eb2,UKN
𤺳,0x24eb3,UKN
𤻭,0x24eed,UKN
𤻻,0x24efb,UKN
𤻼,0x24efc,UKN
𤼵,0x24f35,UKN
𤼸,0x24f38,UKN
𤽗,0x24f57,UKN
𤽵,0x24f75,UKN
𤽸,0x24f78,UKN
𤾓,0x24f93,UKN
𤿤,0x24fe4,UKN
𤿭,0x24fed,UKN
𤿰,0x24ff0,UKN
𥀳,0x25033,UKN
𥁚,0x2505a,UKN
𥃱,0x250f1,UKN
𥄫,0x2512b,UKN
𥄭,0x2512d,UKN
𥄮,0x2512e,UKN
𥅦,0x25166,UKN
𥆁,0x25181,UKN
𥆾,0x251be,UKN
𥈴,0x25234,UKN
𥉩,0x25269,UKN
𥉬,0x2526c,UKN
𥉰,0x25270,UKN
𥊖,0x25296,UKN
𥊘,0x25298,UKN
𥊚,0x2529a,UKN
𥊢,0x252a2,UKN
𥋓,0x252d3,UKN
𥋳,0x252f3,UKN
𥋴,0x252f4,UKN
𥏌,0x253cc,UKN
𥐆,0x25406,UKN
𥐧,0x25427,UKN
𥑁,0x25441,UKN
𥑥,0x25465,UKN
𥒃,0x25483,UKN
𥒅,0x25485,UKN
𥒥,0x254a5,UKN
𥒮,0x254ae,UKN
𥓄,0x254c4,UKN
𥓅,0x254c5,UKN
𥕄,0x25544,UKN
𥖓,0x25593,UKN
𥗐,0x255d0,UKN
𥘀,0x25600,UKN
𥘶,0x25636,UKN
𥘷,0x25637,UKN
𥙓,0x25653,UKN
𥙩,0x25669,UKN
𥚇,0x25687,UKN
𥛉,0x256c9,UKN
𥜤,0x25724,UKN
𥝥,0x25765,UKN
𥠭,0x2582d,UKN
𥢅,0x25885,UKN
𥢆,0x25886,UKN
𥩯,0x25a6f,UKN
𥪝,0x25a9d,UKN
𥪞,0x25a9e,UKN
𥪸,0x25ab8,UKN
𥮉,0x25b89,UKN
𥮊,0x25b8a,UKN
𥮋,0x25b8b,UKN
𥯌,0x25bcc,UKN
𥯎,0x25bce,UKN
𥯒,0x25bd2,UKN
𥯓,0x25bd3,UKN
𥰊,0x25c0a,UKN
𥱬,0x25c6c,UKN
𥱱,0x25c71,UKN
𥵙,0x25d59,UKN
𥶄,0x25d84,UKN
𥸷,0x25e37,UKN
𥹰,0x25e70,UKN
𥺏,0x25e8f,UKN
𥾽,0x25fbd,UKN
𥾾,0x25fbe,UKN
𥿀,0x25fc0,UKN
𥿁,0x25fc1,UKN
𥿗,0x25fd7,UKN
𥿠,0x25fe0,UKN
𥿥,0x25fe5,UKN
𥿺,0x25ffa,UKN
𦀊,0x2600a,UKN
𦀎,0x2600e,UKN
𦀗,0x26017,UKN
𦀚,0x2601a,UKN
𦀻,0x2603b,UKN
𦀼,0x2603c,UKN
𦀽,0x2603d,UKN
𦁼,0x2607c,UKN
𦂛,0x2609b,UKN
𦂼,0x260bc,UKN
𦄅,0x26105,UKN
𦄴,0x26134,UKN
𦄵,0x26135,UKN
𦄾,0x2613e,UKN
𦅰,0x26170,UKN
𦆆,0x26186,UKN
𦇒,0x261d2,UKN
𦉱,0x26271,UKN
𦊚,0x2629a,UKN
𦊛,0x2629b,UKN
𦋦,0x262e6,UKN
𦍛,0x2635b,UKN
𦍫,0x2636b,UKN
𦎛,0x2639b,UKN
𦑃,0x26443,UKN
𦑗,0x26457,UKN
𦒹,0x264b9,UKN
𦓅,0x264c5,UKN
𦓊,0x264ca,UKN
𦓿,0x264ff,UKN
𦖑,0x26591,UKN
𦖡,0x265a1,UKN
𦖻,0x265bb,UKN
𦗏,0x265cf,UKN
𦘧,0x26627,UKN
𦛌,0x266cc,UKN
𦛜,0x266dc,UKN
𦝄,0x26744,UKN
𦟐,0x267d0,UKN
𦠘,0x26818,UKN
𦡟,0x2685f,UKN
𦢳,0x268b3,UKN
𦣰,0x268f0,UKN
𦧘,0x269d8,UKN
𦨢,0x26a22,UKN
𦩚,0x26a5a,UKN
𦬑,0x26b11,UKN
𦬶,0x26b36,UKN
𦭒,0x26b52,UKN
𦰟,0x26c1f,UKN
𦰤,0x26c24,UKN
𦰦,0x26c26,UKN
𦲾,0x26cbe,UKN
𦲿,0x26cbf,UKN
𦵚,0x26d5a,UKN
𦵛,0x26d5b,UKN
𦹳,0x26e73,UKN
𦹴,0x26e74,UKN
𦹵,0x26e75,UKN
𦹷,0x26e77,UKN
𦼔,0x26f14,UKN
𦼛,0x26f1b,UKN
𧀒,0x27012,UKN
𧀟,0x2701f,UKN
𧃲,0x270f2,UKN
𧄈,0x27108,UKN
𧅬,0x2716c,UKN
𧈧,0x27227,UKN
𧊉,0x27289,UKN
𧋃,0x272c3,UKN
𧋆,0x272c6,UKN
𧋻,0x272fb,UKN
𧍉,0x27349,UKN
𧍋,0x2734b,UKN
𧍝,0x2735d,UKN
𧏵,0x273f5,UKN
𧐖,0x27416,UKN
𧖱,0x275b1,UKN
𧗅,0x275c5,UKN
𧗱,0x275f1,UKN
𧘇,0x27607,UKN
𧛇,0x276c7,UKN
𧜖,0x27716,UKN
𧝨,0x27768,UKN
𧞊,0x2778a,UKN
𧞾,0x277be,UKN
𧡊,0x2784a,UKN
𧣳,0x278f3,UKN
𧥇,0x27947,UKN
𧯄,0x27bc4,UKN
𧯶,0x27bf6,UKN
𧴤,0x27d24,UKN
𧵆,0x27d46,UKN
𧵑,0x27d51,UKN
𧷺,0x27dfa,UKN
𧸒,0x27e12,UKN
𧹋,0x27e4b,UKN
𧺀,0x27e80,UKN
𧺃,0x27e83,UKN
𧻐,0x27ed0,UKN
𧻭,0x27eed,UKN
𧼋,0x27f0b,UKN
𧿆,0x27fc6,UKN
𧿨,0x27fe8,UKN
𨀈,0x28008,UKN
𨀊,0x2800a,UKN
𨀎,0x2800e,UKN
𨀐,0x28010,UKN
𨀒,0x28012,UKN
𨀰,0x28030,UKN
𨀺,0x2803a,UKN
𨁏,0x2804f,UKN
𨁡,0x28061,UKN
𨁪,0x2806a,UKN
𨁮,0x2806e,UKN
𨁯,0x2806f,UKN
𨃐,0x280d0,UKN
𨃝,0x280dd,UKN
𨃴,0x280f4,UKN
𨃹,0x280f9,UKN
𨄷,0x28137,UKN
𨄹,0x28139,UKN
𨅌,0x2814c,UKN
𨅸,0x28178,UKN
𨅹,0x28179,UKN
𨆏,0x2818f,UKN
𨆝,0x2819d,UKN
𨆢,0x281a2,UKN
𨆶,0x281b6,UKN
𨇍,0x281cd,UKN
𨇒,0x281d2,UKN
𨇜,0x281dc,UKN
𨉓,0x28253,UKN
𨋣,0x282e3,UKN
𨐸,0x28438,UKN
𨑗,0x28457,UKN
𨑮,0x2846e,UKN
𨒒,0x28492,UKN
𨒖,0x28496,UKN
𨒟,0x2849f,UKN
𨒣,0x284a3,UKN
𨒺,0x284ba,UKN
𨒻,0x284bb,UKN
𨓐,0x284d0,UKN
𨓡,0x284e1,UKN
𨔈,0x28508,UKN
𨔉,0x28509,UKN
𨔍,0x2850d,UKN
𨔿,0x2853f,UKN
𨕭,0x2856d,UKN
𨖅,0x28585,UKN
𨖲,0x285b2,UKN
𨡉,0x28849,UKN
𨢇,0x28887,UKN
𨢟,0x2889f,UKN
𨤔,0x28914,UKN
𨤮,0x2892e,UKN
𨤰,0x28930,UKN
𨤵,0x28935,UKN
𨦩,0x289a9,UKN
𨮑,0x28b91,UKN
𨯹,0x28bf9,UKN
𨱽,0x28c7d,UKN
𨳒,0x28cd2,UKN
𨴦,0x28d26,UKN
𨷑,0x28dd1,UKN
𨻫,0x28eeb,UKN
𩁶,0x29076,UKN
𩂏,0x2908f,UKN
𩂟,0x2909f,UKN
𩃳,0x290f3,UKN
𩄓,0x29113,UKN
𩄰,0x29130,UKN
𩄲,0x29132,UKN
𩅀,0x29140,UKN
𩅘,0x29158,UKN
𩅻,0x2917b,UKN
𩆋,0x2918b,UKN
𩆐,0x29190,UKN
𩆪,0x291aa,UKN
𩈘,0x29218,UKN
𩌂,0x29302,UKN
𩑛,0x2945b,UKN
𩘬,0x2962c,UKN
𩙌,0x2964c,UKN
𩚵,0x296b5,UKN
𩛂,0x296c2,UKN
𩛜,0x296dc,UKN
𩛷,0x296f7,UKN
𩝇,0x29747,UKN
𩠓,0x29813,UKN
𩠴,0x29834,UKN
𩢬,0x298ac,UKN
𩩫,0x29a6b,UKN
𩭶,0x29b76,UKN
𩯀,0x29bc0,UKN
𩲉,0x29c89,UKN
𩳊,0x29cca,UKN
𩵜,0x29d5c,UKN
𪀄,0x2a004,UKN
𪂲,0x2a0b2,UKN
𪃴,0x2a0f4,UKN
𪇴,0x2a1f4,UKN
𪉥,0x2a265,UKN
𪉽,0x2a27d,UKN
𪔠,0x2a520,UKN
𪖫,0x2a5ab,UKN
𪘵,0x2a635,UKN
𪜀,0x2a700,UKN
𪟽,0x2a7fd,UKN
𪡔,0x2a854,UKN
𪤄,0x2a904,UKN
𪧍,0x2a9cd,UKN
𪧚,0x2a9da,UKN
𪬡,0x2ab21,UKN
𪬳,0x2ab33,UKN
𪮻,0x2abbb,UKN
𪱆,0x2ac46,UKN
𪱯,0x2ac6f,UKN
𪳔,0x2acd4,UKN
𪵟,0x2ad5f,UKN
𪹣,0x2ae63,UKN
𪹰,0x2ae70,UKN
𪹾,0x2ae7e,UKN
𪽗,0x2af57,UKN
𪽝,0x2af5d,UKN
𪾋,0x2af8b,UKN
𪾦,0x2afa6,UKN
𪿒,0x2afd2,UKN
𪿙,0x2afd9,UKN
𪿥,0x2afe5,UKN
𫃚,0x2b0da,UKN
𫃤,0x2b0e4,UKN
𫃫,0x2b0eb,UKN
𫄄,0x2b104,UKN
𫄓,0x2b113,UKN
𫅜,0x2b15c,UKN
𫅤,0x2b164,UKN
𫅷,0x2b177,UKN
𫇰,0x2b1f0,UKN
𫈅,0x2b205,UKN
𫉚,0x2b25a,UKN
𫋻,0x2b2fb,UKN
𫎇,0x2b387,UKN
𫐮,0x2b42e,UKN
𫔤,0x2b524,UKN
𫔭,0x2b52d,UKN
𫔮,0x2b52e,UKN
𫔳,0x2b533,UKN
𫕲,0x2b572,UKN
𫗄,0x2b5c4,UKN
𫠓,0x2b813,UKN
𫡉,0x2b849,UKN
𫡻,0x2b87b,UKN
𫢩,0x2b8a9,UKN
𫥌,0x2b94c,UKN
𫥨,0x2b968,UKN
𫨩,0x2ba29,UKN
𫫵,0x2baf5,UKN
𫯍,0x2bbcd,UKN
𫯳,0x2bbf3,UKN
𫴋,0x2bd0b,UKN
𫷜,0x2bddc,UKN
𫼬,0x2bf2c,UKN
𫼳,0x2bf33,UKN
𫽄,0x2bf44,UKN
𬁖,0x2c056,UKN
𬁻,0x2c07b,UKN
𬂙,0x2c099,UKN
𬆄,0x2c184,UKN
𬇚,0x2c1da,UKN
𬋟,0x2c2df,UKN
𬋩,0x2c2e9,UKN
𬌓,0x2c313,UKN
𬌥,0x2c325,UKN
𬏝,0x2c3dd,UKN
𬑉,0x2c449,UKN
𬑰,0x2c470,UKN
𬗢,0x2c5e2,UKN
𬙞,0x2c65e,UKN
𬞕,0x2c795,UKN
𬞺,0x2c7ba,UKN
𬢱,0x2c8b1,UKN
𬦃,0x2c983,UKN
𬦮,0x2c9ae,UKN
𬦼,0x2c9bc,UKN
𬨠,0x2ca20,UKN
𬮎,0x2cb8e,UKN
𬮙,0x2cb99,UKN
𬰅,0x2cc05,UKN
𬲊,0x2cc8a,UKN
𬷤,0x2cde4,UKN
𭃂,0x2d0c2,UKN
𭓇,0x2d4c7,UKN
𭛣,0x2d6e3,UKN
𭸓,0x2de13,UKN
𮎦,0x2e3a6,UKN
𮥷,0x2e977,UKN
𰎉,0x30389,UKN
𰙔,0x30654,UKN
𰿘,0x30fd8,UKN
㐌,0x340c,UKN
㐱,0x3431,UKN
㐻,0x343b,UKN
㒙,0x3499,UKN
㓠,0x34e0,UKN
㕫,0x356b,UKN
㕰,0x3570,UKN
㕵,0x3575,UKN
㕸,0x3578,UKN
㖇,0x3587,UKN
㖔,0x3594,UKN
㖡,0x35a1,UKN
㖫,0x35ab,UKN
㗀,0x35c0,UKN
㗂,0x35c2,UKN
㗅,0x35c5,UKN
㗍,0x35cd,UKN
㗜,0x35dc,UKN
㗰,0x35f0,UKN
㘇,0x3607,UKN
㘛,0x361b,UKN
㘧,0x3627,UKN
㘨,0x3628,UKN
㙴,0x3674,UKN
㛪,0x36ea,UKN
㝵,0x3775,UKN
㝹,0x3779,UKN
㤌,0x390c,UKN
㤕,0x3915,UKN
㥬,0x396c,UKN
㧅,0x39c5,UKN
㧼,0x39fc,UKN
㧾,0x39fe,UKN
㨂,0x3a02,UKN
㨢,0x3a22,UKN
㨳,0x3a33,UKN
㨴,0x3a34,UKN
㨿,0x3a3f,UKN
㩅,0x3a45,UKN
㩒,0x3a52,UKN
㩫,0x3a6b,UKN
㭲,0x3b72,UKN
㭳,0x3b73,UKN
㯊,0x3bca,UKN
㳥,0x3ce5,UKN
㳶,0x3cf6,UKN
㳻,0x3cfb,UKN
㴷,0x3d37,UKN
㵢,0x3d62,UKN
㵣,0x3d63,UKN
㵧,0x3d67,UKN
䀡,0x4021,UKN
䃣,0x40e3,UKN
䈟,0x421f,UKN
䋎,0x42ce,UKN
䋥,0x42e5,UKN
䋦,0x42e6,UKN
䋲,0x42f2,UKN
䏦,0x43e6,UKN
䏧,0x43e7,UKN
䏾,0x43fe,UKN
䓪,0x44ea,UKN
䔲,0x4532,UKN
䕃,0x4543,UKN
䕯,0x456f,UKN
䘮,0x462e,UKN
䚂,0x4682,UKN
䜹,0x4739,UKN
䝨,0x4768,UKN
䟢,0x47e2,UKN
䠣,0x4823,UKN
䣷,0x48f7,UKN
䦕,0x4995,UKN
䧺,0x49fa,UKN
䱛,0x4c5b,UKN
一,0x4e00,UKN
丁,0x4e01,UKN
七,0x4e03,UKN
丈,0x4e08,UKN
三,0x4e09,UKN
上,0x4e0a,UKN
下,0x4e0b,UKN
不,0x4e0d,UKN
与,0x4e0e,UKN
丐,0x4e10,UKN
且,0x4e14,UKN
丕,0x4e15,UKN
世,0x4e16,UKN
中,0x4e2d,UKN
丰,0x4e30,UKN
丸,0x4e38,UKN
丹,0x4e39,UKN
主,0x4e3b,UKN
丿,0x4e3f,UKN
乃,0x4e43,UKN
久,0x4e45,UKN
义,0x4e49,UKN
之,0x4e4b,UKN
乍,0x4e4d,UKN
乖,0x4e56,UKN
乘,0x4e58,UKN
乙,0x4e59,UKN
九,0x4e5d,UKN
乞,0x4e5e,UKN
也,0x4e5f,UKN
书,0x4e66,UKN
乱,0x4e71,UKN
乳,0x4e73,UKN
乾,0x4e7e,UKN
了,0x4e86,UKN
亇,0x4e87,UKN
事,0x4e8b,UKN
二,0x4e8c,UKN
于,0x4e8e,UKN
云,0x4e91,UKN
五,0x4e94,UKN
亘,0x4e98,UKN
些,0x4e9b,UKN
亡,0x4ea1,UKN
交,0x4ea4,UKN
亨,0x4ea8,UKN
享,0x4eab,UKN
京,0x4eac,UKN
亭,0x4ead,UKN
人,0x4eba,UKN
仁,0x4ec1,UKN
仃,0x4ec3,UKN
今,0x4eca,UKN
仍,0x4ecd,UKN
仕,0x4ed5,UKN
他,0x4ed6,UKN
付,0x4ed8,UKN
仙,0x4ed9,UKN
代,0x4ee3,UKN
令,0x4ee4,UKN
以,0x4ee5,UKN
仰,0x4ef0,UKN
任,0x4efb,UKN
份,0x4efd,UKN
伊,0x4f0a,UKN
伏,0x4f0f,UKN
休,0x4f11,UKN
会,0x4f1a,UKN
伮,0x4f2e,UKN
伯,0x4f2f,UKN
伴,0x4f34,UKN
伵,0x4f35,UKN
伶,0x4f36,UKN
伽,0x4f3d,UKN
位,0x4f4d,UKN
低,0x4f4e,UKN
住,0x4f4f,UKN
佐,0x4f50,UKN
体,0x4f53,UKN
何,0x4f55,UKN
佗,0x4f57,UKN
佛,0x4f5b,UKN
作,0x4f5c,UKN
佞,0x4f5e,UKN
佩,0x4f69,UKN
佳,0x4f73,UKN
併,0x4f75,UKN
使,0x4f7f,UKN
來,0x4f86,UKN
侈,0x4f88,UKN
例,0x4f8b,UKN
侍,0x4f8d,UKN
供,0x4f9b,UKN
依,0x4f9d,UKN
侯,0x4faf,UKN
侵,0x4fb5,UKN
侶,0x4fb6,UKN
便,0x4fbf,UKN
係,0x4fc2,UKN
俘,0x4fd8,UKN
俚,0x4fda,UKN
保,0x4fdd,UKN
信,0x4fe1,UKN
修,0x4fee,UKN
俸,0x4ff8,UKN
倂,0x5002,UKN
倉,0x5009,UKN
個,0x500b,UKN
倍,0x500d,UKN
倒,0x5012,UKN
倖,0x5016,UKN
倘,0x5018,UKN
候,0x5019,UKN
倚,0x501a,UKN
倣,0x5023,UKN
倫,0x502b,UKN
假,0x5047,UKN
偈,0x5048,UKN
偏,0x504f,UKN
停,0x505c,UKN
健,0x5065,UKN
偶,0x5076,UKN
偷,0x5077,UKN
傅,0x5085,UKN
傍,0x508d,UKN
傑,0x5091,UKN
傕,0x5095,UKN
傖,0x5096,UKN
傘,0x5098,UKN
傦,0x50a6,UKN
催,0x50ac,UKN
傱,0x50b1,UKN
傳,0x50b3,UKN
債,0x50b5,UKN
傷,0x50b7,UKN
傾,0x50be,UKN
像,0x50cf,UKN
僚,0x50da,UKN
僣,0x50e3,UKN
僥,0x50e5,UKN
僮,0x50ee,UKN
價,0x50f9,UKN
儀,0x5100,UKN
儈,0x5108,UKN
儉,0x5109,UKN
儒,0x5112,UKN
元,0x5143,UKN
兄,0x5144,UKN
兆,0x5146,UKN
先,0x5148,UKN
光,0x5149,UKN
克,0x514b,UKN
兎,0x514e,UKN
兑,0x5151,UKN
兒,0x5152,UKN
兔,0x5154,UKN
党,0x515a,UKN
兜,0x515c,UKN
兠,0x5160,UKN
入,0x5165,UKN
全,0x5168,UKN
兩,0x5169,UKN
八,0x516b,UKN
公,0x516c,UKN
六,0x516d,UKN
兮,0x516e,UKN
共,0x5171,UKN
兵,0x5175,UKN
其,0x5176,UKN
典,0x5178,UKN
养,0x517b,UKN
内,0x5185,UKN
冉,0x5189,UKN
冊,0x518a,UKN
册,0x518c,UKN
再,0x518d,UKN
写,0x5199,UKN
冠,0x51a0,UKN
冢,0x51a2,UKN
冤,0x51a4,UKN
冥,0x51a5,UKN
冬,0x51ac,UKN
冰,0x51b0,UKN
冲,0x51b2,UKN
决,0x51b3,UKN
况,0x51b5,UKN
冷,0x51b7,UKN
冽,0x51bd,UKN
准,0x51c6,UKN
凈,0x51c8,UKN
凌,0x51cc,UKN
凍,0x51cd,UKN
凛,0x51db,UKN
凝,0x51dd,UKN
几,0x51e0,UKN
凡,0x51e1,UKN
凭,0x51ed,UKN
凱,0x51f1,UKN
凶,0x51f6,UKN
出,0x51fa,UKN
函,0x51fd,UKN
刀,0x5200,UKN
分,0x5206,UKN
切,0x5207,UKN
刎,0x520e,UKN
刑,0x5211,UKN
列,0x5217,UKN
刘,0x5218,UKN
初,0x521d,UKN
判,0x5224,UKN
別,0x5225,UKN
刧,0x5227,UKN
利,0x5229,UKN
别,0x522b,UKN
到,0x5230,UKN
制,0x5236,UKN
刺,0x523a,UKN
刻,0x523b,UKN
刼,0x523c,UKN
前,0x524d,UKN
割,0x5272,UKN
創,0x5275,UKN
剿,0x527f,UKN
劄,0x5284,UKN
劍,0x528d,UKN
劎,0x528e,UKN
劔,0x5294,UKN
功,0x529f,UKN
加,0x52a0,UKN
劬,0x52ac,UKN
劳,0x52b3,UKN
勇,0x52c7,UKN
動,0x52d5,UKN
務,0x52d9,UKN
勝,0x52dd,UKN
勞,0x52de,UKN
勤,0x52e4,UKN
勸,0x52f8,UKN
勾,0x52fe,UKN
勿,0x52ff,UKN
包,0x5305,UKN
匕,0x5315,UKN
化,0x5316,UKN
北,0x5317,UKN
匝,0x531d,UKN
匣,0x5323,UKN
匪,0x532a,UKN
匹,0x5339,UKN
医,0x533b,UKN
十,0x5341,UKN
千,0x5343,UKN
升,0x5347,UKN
午,0x5348,UKN
半,0x534a,UKN
卒,0x5352,UKN
卓,0x5353,UKN
单,0x5355,UKN
南,0x5357,UKN
博,0x535a,UKN
卜,0x535c,UKN
卞,0x535e,UKN
占,0x5360,UKN
卢,0x5362,UKN
卦,0x5366,UKN
卯,0x536f,UKN
印,0x5370,UKN
危,0x5371,UKN
即,0x5373,UKN
卷,0x5377,UKN
卿,0x537f,UKN
厔,0x5394,UKN
厚,0x539a,UKN
原,0x539f,UKN
厨,0x53a8,UKN
厭,0x53ad,UKN
厲,0x53b2,UKN
去,0x53bb,UKN
叁,0x53c1,UKN
參,0x53c3,UKN
又,0x53c8,UKN
及,0x53ca,UKN
友,0x53cb,UKN
双,0x53cc,UKN
叔,0x53d4,UKN
受,0x53d7,UKN
变,0x53d8,UKN
叙,0x53d9,UKN
叛,0x53db,UKN
口,0x53e3,UKN
古,0x53e4,UKN
句,0x53e5,UKN
另,0x53e6,UKN
叩,0x53e9,UKN
只,0x53ea,UKN
叭,0x53ed,UKN
台,0x53f0,UKN
叱,0x53f1,UKN
史,0x53f2,UKN
右,0x53f3,UKN
号,0x53f7,UKN
司,0x53f8,UKN
吀,0x5400,UKN
吁,0x5401,UKN
吃,0x5403,UKN
各,0x5404,UKN
合,0x5408,UKN
同,0x540c,UKN
名,0x540d,UKN
后,0x540e,UKN
吏,0x540f,UKN
吒,0x5412,UKN
吔,0x5414,UKN
吕,0x5415,UKN
吘,0x5418,UKN
君,0x541b,UKN
吝,0x541d,UKN
吟,0x541f,UKN
否,0x5426,UKN
吨,0x5428,UKN
吪,0x542a,UKN
吱,0x5431,UKN
吲,0x5432,UKN
吳,0x5433,UKN
吹,0x5439,UKN
呂,0x5442,UKN
呈,0x5448,UKN
告,0x544a,UKN
呌,0x544c,UKN
呐,0x5450,UKN
呢,0x5462,UKN
呦,0x5466,UKN
周,0x5468,UKN
味,0x5473,UKN
呵,0x5475,UKN
呼,0x547c,UKN
命,0x547d,UKN
咀,0x5480,UKN
和,0x548c,UKN
咍,0x548d,UKN
咏,0x548f,UKN
咒,0x5492,UKN
咘,0x5498,UKN
咣,0x54a3,UKN
咦,0x54a6,UKN
咬,0x54ac,UKN
咭,0x54ad,UKN
咮,0x54ae,UKN
咯,0x54af,UKN
咳,0x54b3,UKN
咹,0x54b9,UKN
咽,0x54bd,UKN
咾,0x54be,UKN
品,0x54c1,UKN
哉,0x54c9,UKN
哎,0x54ce,UKN
哏,0x54cf,UKN
哙,0x54d9,UKN
員,0x54e1,UKN
哦,0x54e6,UKN
哬,0x54ec,UKN
哭,0x54ed,UKN
哯,0x54ef,UKN
哰,0x54f0,UKN
哴,0x54f4,UKN
哺,0x54fa,UKN
唁,0x5501,UKN
唅,0x5505,UKN
唉,0x5509,UKN
唎,0x550e,UKN
唏,0x550f,UKN
唐,0x5510,UKN
唒,0x5512,UKN
唚,0x551a,UKN
唪,0x552a,UKN
唭,0x552d,UKN
唯,0x552f,UKN
唱,0x5531,UKN
唳,0x5533,UKN
唷,0x5537,UKN
唸,0x5538,UKN
唹,0x5539,UKN
唻,0x553b,UKN
唿,0x553f,UKN
啂,0x5542,UKN
啅,0x5545,UKN
商,0x5546,UKN
啉,0x5549,UKN
問,0x554f,UKN
啐,0x5550,UKN
啫,0x556b,UKN
啻,0x557b,UKN
啿,0x557f,UKN
喂,0x5582,UKN
善,0x5584,UKN
喑,0x5591,UKN
喓,0x5593,UKN
喕,0x5595,UKN
喜,0x559c,UKN
喝,0x559d,UKN
喠,0x55a0,UKN
喡,0x55a1,UKN
喪,0x55aa,UKN
喬,0x55ac,UKN
喭,0x55ad,UKN
單,0x55ae,UKN
嗂,0x55c2,UKN
嗃,0x55c3,UKN
嗇,0x55c7,UKN
嗎,0x55ce,UKN
嗔,0x55d4,UKN
嗕,0x55d5,UKN
嗷,0x55f7,UKN
嗼,0x55fc,UKN
嘅,0x5605,UKN
嘆,0x5606,UKN
嘉,0x5609,UKN
嘛,0x561b,UKN
嘬,0x562c,UKN
嘮,0x562e,UKN
嘲,0x5632,UKN
嘵,0x5635,UKN
嘹,0x5639,UKN
噅,0x5645,UKN
噋,0x564b,UKN
噒,0x5652,UKN
噠,0x5660,UKN
噡,0x5661,UKN
噲,0x5672,UKN
噴,0x5674,UKN
噷,0x5677,UKN
嚉,0x5689,UKN
嚧,0x56a7,UKN
嚴,0x56b4,UKN
囂,0x56c2,UKN
囊,0x56ca,UKN
囚,0x56da,UKN
四,0x56db,UKN
回,0x56de,UKN
因,0x56e0,UKN
囬,0x56ec,UKN
囯,0x56ef,UKN
囷,0x56f7,UKN
固,0x56fa,UKN
國,0x570b,UKN
圍,0x570d,UKN
園,0x5712,UKN
圓,0x5713,UKN
圖,0x5716,UKN
團,0x5718,UKN
土,0x571f,UKN
圣,0x5723,UKN
在,0x5728,UKN
圭,0x572d,UKN
圯,0x572f,UKN
地,0x5730,UKN
坊,0x574a,UKN
坐,0x5750,UKN
坡,0x5761,UKN
坤,0x5764,UKN
坦,0x5766,UKN
坭,0x576d,UKN
垃,0x5783,UKN
垠,0x57a0,UKN
垢,0x57a2,UKN
埃,0x57c3,UKN
埋,0x57cb,UKN
城,0x57ce,UKN
埝,0x57dd,UKN
域,0x57df,UKN
埬,0x57ec,UKN
執,0x57f7,UKN
培,0x57f9,UKN
基,0x57fa,UKN
堂,0x5802,UKN
堅,0x5805,UKN
堆,0x5806,UKN
堛,0x581b,UKN
堞,0x581e,UKN
堤,0x5824,UKN
堯,0x582f,UKN
報,0x5831,UKN
場,0x5834,UKN
塊,0x584a,UKN
塔,0x5854,UKN
塗,0x5857,UKN
塘,0x5858,UKN
塞,0x585e,UKN
塢,0x5862,UKN
塲,0x5872,UKN
塵,0x5875,UKN
塸,0x5878,UKN
墓,0x5893,UKN
墟,0x589f,UKN
墨,0x58a8,UKN
墫,0x58ab,UKN
墮,0x58ae,UKN
墳,0x58b3,UKN
墻,0x58bb,UKN
壁,0x58c1,UKN
壇,0x58c7,UKN
壈,0x58c8,UKN
壓,0x58d3,UKN
壘,0x58d8,UKN
壙,0x58d9,UKN
士,0x58eb,UKN
壬,0x58ec,UKN
声,0x58f0,UKN
壳,0x58f3,UKN
壻,0x58fb,UKN
壼,0x58fc,UKN
壽,0x58fd,UKN
夏,0x590f,UKN
外,0x5916,UKN
夙,0x5919,UKN
多,0x591a,UKN
夜,0x591c,UKN
夢,0x5922,UKN
大,0x5927,UKN
天,0x5929,UKN
太,0x592a,UKN
夫,0x592b,UKN
夭,0x592d,UKN
失,0x5931,UKN
夷,0x5937,UKN
夾,0x593e,UKN
奄,0x5944,UKN
奇,0x5947,UKN
奈,0x5948,UKN
奉,0x5949,UKN
奏,0x594f,UKN
奔,0x5954,UKN
女,0x5973,UKN
奴,0x5974,UKN
奸,0x5978,UKN
好,0x597d,UKN
如,0x5982,UKN
妄,0x5984,UKN
妑,0x5991,UKN
妙,0x5999,UKN
妥,0x59a5,UKN
妬,0x59ac,UKN
妯,0x59af,UKN
妸,0x59b8,UKN
妻,0x59bb,UKN
妾,0x59be,UKN
姂,0x59c2,UKN
姅,0x59c5,UKN
姉,0x59c9,UKN
始,0x59cb,UKN
姐,0x59d0,UKN
姑,0x59d1,UKN
姓,0x59d3,UKN
姬,0x59ec,UKN
姮,0x59ee,UKN
姻,0x59fb,UKN
姿,0x59ff,UKN
威,0x5a01,UKN
娄,0x5a04,UKN
娓,0x5a13,UKN
娘,0x5a18,UKN
娟,0x5a1f,UKN
娥,0x5a25,UKN
娶,0x5a36,UKN
婀,0x5a40,UKN
婍,0x5a4d,UKN
婚,0x5a5a,UKN
婢,0x5a62,UKN
婦,0x5a66,UKN
婵,0x5a75,UKN
媄,0x5a84,UKN
媒,0x5a92,UKN
嫁,0x5ac1,UKN
嫂,0x5ac2,UKN
嫊,0x5aca,UKN
嫌,0x5acc,UKN
嫩,0x5ae9,UKN
嬋,0x5b0b,UKN
嬌,0x5b0c,UKN
子,0x5b50,UKN
孔,0x5b54,UKN
孕,0x5b55,UKN
字,0x5b57,UKN
孚,0x5b5a,UKN
孛,0x5b5b,UKN
孝,0x5b5d,UKN
孟,0x5b5f,UKN
季,0x5b63,UKN
孤,0x5b64,UKN
孫,0x5b6b,UKN
學,0x5b78,UKN
孽,0x5b7d,UKN
宁,0x5b81,UKN
它,0x5b83,UKN
宇,0x5b87,UKN
守,0x5b88,UKN
安,0x5b89,UKN
宋,0x5b8b,UKN
宗,0x5b97,UKN
官,0x5b98,UKN
定,0x5b9a,UKN
宜,0x5b9c,UKN
宝,0x5b9d,UKN
客,0x5ba2,UKN
室,0x5ba4,UKN
宦,0x5ba6,UKN
宮,0x5bae,UKN
宰,0x5bb0,UKN
害,0x5bb3,UKN
宴,0x5bb4,UKN
宵,0x5bb5,UKN
家,0x5bb6,UKN
容,0x5bb9,UKN
寃,0x5bc3,UKN
寄,0x5bc4,UKN
寅,0x5bc5,UKN
富,0x5bcc,UKN
寒,0x5bd2,UKN
寓,0x5bd3,UKN
寔,0x5bd4,UKN
察,0x5bdf,UKN
寡,0x5be1,UKN
寧,0x5be7,UKN
審,0x5be9,UKN
寫,0x5beb,UKN
寬,0x5bec,UKN
寺,0x5bfa,UKN
対,0x5bfe,UKN
封,0x5c01,UKN
將,0x5c07,UKN
專,0x5c08,UKN
尊,0x5c0a,UKN
尋,0x5c0b,UKN
小,0x5c0f,UKN
少,0x5c11,UKN
尔,0x5c14,UKN
尖,0x5c16,UKN
就,0x5c31,UKN
尸,0x5c38,UKN
尹,0x5c39,UKN
尼,0x5c3c,UKN
尽,0x5c3d,UKN
局,0x5c40,UKN
屈,0x5c48,UKN
屍,0x5c4d,UKN
屏,0x5c4f,UKN
属,0x5c5e,UKN
屡,0x5c61,UKN
屢,0x5c62,UKN
屬,0x5c6c,UKN
屯,0x5c6f,UKN
山,0x5c71,UKN
屹,0x5c79,UKN
岌,0x5c8c,UKN
岐,0x5c90,UKN
岧,0x5ca7,UKN
岩,0x5ca9,UKN
岳,0x5cb3,UKN
岸,0x5cb8,UKN
島,0x5cf6,UKN
崔,0x5d14,UKN
崙,0x5d19,UKN
崩,0x5d29,UKN
嵬,0x5d6c,UKN
嶺,0x5dba,UKN
嶽,0x5dbd,UKN
川,0x5ddd,UKN
州,0x5dde,UKN
巡,0x5de1,UKN
巢,0x5de2,UKN
工,0x5de5,UKN
左,0x5de6,UKN
巧,0x5de7,UKN
差,0x5dee,UKN
己,0x5df1,UKN
巴,0x5df4,UKN
巾,0x5dfe,UKN
币,0x5e01,UKN
布,0x5e03,UKN
帆,0x5e06,UKN
帖,0x5e16,UKN
帝,0x5e1d,UKN
帥,0x5e25,UKN
師,0x5e2b,UKN
席,0x5e2d,UKN
帳,0x5e33,UKN
帶,0x5e36,UKN
常,0x5e38,UKN
帽,0x5e3d,UKN
幅,0x5e45,UKN
幔,0x5e54,UKN
干,0x5e72,UKN
平,0x5e73,UKN
年,0x5e74,UKN
并,0x5e76,UKN
幸,0x5e78,UKN
幻,0x5e7b,UKN
幽,0x5e7d,UKN
庄,0x5e84,UKN
床,0x5e8a,UKN
庒,0x5e92,UKN
底,0x5e95,UKN
店,0x5e97,UKN
庙,0x5e99,UKN
府,0x5e9c,UKN
度,0x5ea6,UKN
座,0x5ea7,UKN
庫,0x5eab,UKN
庭,0x5ead,UKN
庵,0x5eb5,UKN
康,0x5eb7,UKN
廉,0x5ec9,UKN
廊,0x5eca,UKN
廕,0x5ed5,UKN
廚,0x5eda,UKN
廛,0x5edb,UKN
廟,0x5edf,UKN
廣,0x5ee3,UKN
廳,0x5ef3,UKN
延,0x5ef6,UKN
廷,0x5ef7,UKN
建,0x5efa,UKN
弄,0x5f04,UKN
弊,0x5f0a,UKN
弋,0x5f0b,UKN
式,0x5f0f,UKN
弓,0x5f13,UKN
引,0x5f15,UKN
弟,0x5f1f,UKN
弥,0x5f25,UKN
弭,0x5f2d,UKN
張,0x5f35,UKN
強,0x5f37,UKN
弹,0x5f39,UKN
弼,0x5f3c,UKN
彈,0x5f48,UKN
当,0x5f53,UKN
彙,0x5f59,UKN
形,0x5f62,UKN
彦,0x5f66,UKN
彩,0x5f69,UKN
彫,0x5f6b,UKN
彭,0x5f6d,UKN
役,0x5f79,UKN
彼,0x5f7c,UKN
征,0x5f81,UKN
待,0x5f85,UKN
徊,0x5f8a,UKN
律,0x5f8b,UKN
後,0x5f8c,UKN
徐,0x5f90,UKN
徒,0x5f92,UKN
得,0x5f97,UKN
徘,0x5f98,UKN
從,0x5f9e,UKN
御,0x5fa1,UKN
徨,0x5fa8,UKN
復,0x5fa9,UKN
徬,0x5fac,UKN
微,0x5fae,UKN
德,0x5fb7,UKN
心,0x5fc3,UKN
忊,0x5fca,UKN
忍,0x5fcd,UKN
忖,0x5fd6,UKN
志,0x5fd7,UKN
忘,0x5fd8,UKN
忙,0x5fd9,UKN
忠,0x5fe0,UKN
忱,0x5ff1,UKN
念,0x5ff5,UKN
怒,0x6012,UKN
思,0x601d,UKN
急,0x6025,UKN
性,0x6027,UKN
怨,0x6028,UKN
怪,0x602a,UKN
怯,0x602f,UKN
怲,0x6032,UKN
恃,0x6043,UKN
恄,0x6044,UKN
恋,0x604b,UKN
恍,0x604d,UKN
恒,0x6052,UKN
恜,0x605c,UKN
恤,0x6064,UKN
恥,0x6065,UKN
恨,0x6068,UKN
恩,0x6069,UKN
恪,0x606a,UKN
恬,0x606c,UKN
息,0x606f,UKN
悁,0x6081,UKN
悉,0x6089,UKN
悌,0x608c,UKN
悜,0x609c,UKN
患,0x60a3,UKN
悭,0x60ad,UKN
悲,0x60b2,UKN
悴,0x60b4,UKN
悶,0x60b6,UKN
情,0x60c5,UKN
惏,0x60cf,UKN
惚,0x60da,UKN
惜,0x60dc,UKN
惡,0x60e1,UKN
惨,0x60e8,UKN
惮,0x60ee,UKN
惱,0x60f1,UKN
想,0x60f3,UKN
惵,0x60f5,UKN
惶,0x60f6,UKN
愁,0x6101,UKN
愆,0x6106,UKN
愈,0x6108,UKN
意,0x610f,UKN
愛,0x611b,UKN
感,0x611f,UKN
慈,0x6148,UKN
慎,0x614e,UKN
慕,0x6155,UKN
慘,0x6158,UKN
慢,0x6162,UKN
慧,0x6167,UKN
慮,0x616e,UKN
慳,0x6173,UKN
慷,0x6177,UKN
憐,0x6190,UKN
憑,0x6191,UKN
憚,0x619a,UKN
憲,0x61b2,UKN
懇,0x61c7,UKN
應,0x61c9,UKN
懞,0x61de,UKN
懨,0x61e8,UKN
懷,0x61f7,UKN
懺,0x61fa,UKN
戈,0x6208,UKN
戌,0x620c,UKN
戍,0x620d,UKN
戎,0x620e,UKN
成,0x6210,UKN
我,0x6211,UKN
戒,0x6212,UKN
或,0x6216,UKN
戚,0x621a,UKN
戛,0x621b,UKN
戰,0x6230,UKN
户,0x6237,UKN
戸,0x6238,UKN
戾,0x623e,UKN
房,0x623f,UKN
所,0x6240,UKN
手,0x624b,UKN
才,0x624d,UKN
扑,0x6251,UKN
扒,0x6252,UKN
打,0x6253,UKN
扔,0x6254,UKN
払,0x6255,UKN
托,0x6258,UKN
扛,0x625b,UKN
扦,0x6266,UKN
执,0x6267,UKN
扯,0x626f,UKN
扱,0x6271,UKN
扲,0x6272,UKN
扵,0x6275,UKN
扶,0x6276,UKN
批,0x6279,UKN
扽,0x627d,UKN
承,0x627f,UKN
技,0x6280,UKN
抇,0x6287,UKN
把,0x628a,UKN
抒,0x6292,UKN
抔,0x6294,UKN
投,0x6295,UKN
折,0x6298,UKN
抛,0x629b,UKN
报,0x62a5,UKN
抪,0x62aa,UKN
披,0x62ab,UKN
抯,0x62af,UKN
抵,0x62b5,UKN
押,0x62bc,UKN
拁,0x62c1,UKN
拂,0x62c2,UKN
担,0x62c5,UKN
拉,0x62c9,UKN
拋,0x62cb,UKN
拌,0x62cc,UKN
拍,0x62cd,UKN
拔,0x62d4,UKN
拖,0x62d6,UKN
拙,0x62d9,UKN
招,0x62db,UKN
拜,0x62dc,UKN
拠,0x62e0,UKN
拫,0x62eb,UKN
拮,0x62ee,UKN
拯,0x62ef,UKN
拱,0x62f1,UKN
拳,0x62f3,UKN
拿,0x62ff,UKN
持,0x6301,UKN
挄,0x6304,UKN
指,0x6307,UKN
挈,0x6308,UKN
按,0x6309,UKN
挌,0x630c,UKN
挑,0x6311,UKN
挪,0x632a,UKN
挭,0x632d,UKN
挷,0x6337,UKN
挸,0x6338,UKN
挹,0x6339,UKN
捁,0x6341,UKN
捄,0x6344,UKN
捇,0x6347,UKN
捉,0x6349,UKN
捌,0x634c,UKN
捐,0x6350,UKN
捕,0x6355,UKN
捘,0x6358,UKN
捞,0x635e,UKN
捤,0x6364,UKN
捥,0x6365,UKN
捲,0x6372,UKN
捻,0x637b,UKN
捽,0x637d,UKN
掃,0x6383,UKN
掑,0x6391,UKN
排,0x6392,UKN
掛,0x639b,UKN
探,0x63a2,UKN
掣,0x63a3,UKN
接,0x63a5,UKN
推,0x63a8,UKN
掩,0x63a9,UKN
措,0x63aa,UKN
揇,0x63c7,UKN
提,0x63d0,UKN
插,0x63d2,UKN
揚,0x63da,UKN
揞,0x63de,UKN
揬,0x63ec,UKN
揲,0x63f2,UKN
援,0x63f4,UKN
搁,0x6401,UKN
搈,0x6408,UKN
搊,0x640a,UKN
搌,0x640c,UKN
搏,0x640f,UKN
搓,0x6413,UKN
搙,0x6419,UKN
搜,0x641c,UKN
携,0x643a,UKN
摄,0x6444,UKN
摓,0x6453,UKN
摡,0x6461,UKN
摧,0x6467,UKN
摱,0x6471,UKN
摳,0x6473,UKN
摸,0x6478,UKN
摺,0x647a,UKN
撐,0x6490,UKN
撑,0x6491,UKN
撝,0x649d,UKN
撟,0x649f,UKN
撩,0x64a9,UKN
撫,0x64ab,UKN
撰,0x64b0,UKN
撻,0x64bb,UKN
擀,0x64c0,UKN
擅,0x64c5,UKN
操,0x64cd,UKN
據,0x64da,UKN
擛,0x64db,UKN
擢,0x64e2,UKN
擲,0x64f2,UKN
攄,0x6504,UKN
攊,0x650a,UKN
攑,0x6511,UKN
攔,0x6514,UKN
攕,0x6515,UKN
攬,0x652c,UKN
支,0x652f,UKN
收,0x6536,UKN
改,0x6539,UKN
攻,0x653b,UKN
故,0x6545,UKN
敎,0x654e,UKN
救,0x6551,UKN
敕,0x6555,UKN
敖,0x6556,UKN
敘,0x6558,UKN
教,0x6559,UKN
敢,0x6562,UKN
散,0x6563,UKN
敦,0x6566,UKN
敬,0x656c,UKN
数,0x6570,UKN
敲,0x6572,UKN
整,0x6574,UKN
敵,0x6575,UKN
數,0x6578,UKN
敺,0x657a,UKN
文,0x6587,UKN
斈,0x6588,UKN
斎,0x658e,UKN
斗,0x6597,UKN
料,0x6599,UKN
斜,0x659c,UKN
斤,0x65a4,UKN
斧,0x65a7,UKN
斫,0x65ab,UKN
断,0x65ad,UKN
斯,0x65af,UKN
新,0x65b0,UKN
斷,0x65b7,UKN
方,0x65b9,UKN
於,0x65bc,UKN
施,0x65bd,UKN
旌,0x65cc,UKN
旗,0x65d7,UKN
旛,0x65db,UKN
既,0x65e2,UKN
日,0x65e5,UKN
旦,0x65e6,UKN
旨,0x65e8,UKN
旬,0x65ec,UKN
旱,0x65f1,UKN
昂,0x6602,UKN
昆,0x6606,UKN
明,0x660e,UKN
昏,0x660f,UKN
易,0x6613,UKN
昔,0x6614,UKN
昛,0x661b,UKN
星,0x661f,UKN
春,0x6625,UKN
昭,0x662d,UKN
是,0x662f,UKN
時,0x6642,UKN
晉,0x6649,UKN
晋,0x664b,UKN
晨,0x6668,UKN
景,0x666f,UKN
晴,0x6674,UKN
智,0x667a,UKN
暄,0x6684,UKN
暈,0x6688,UKN
暗,0x6697,UKN
暢,0x66a2,UKN
暫,0x66ab,UKN
暴,0x66b4,UKN
曖,0x66d6,UKN
曠,0x66e0,UKN
曰,0x66f0,UKN
曲,0x66f2,UKN
曳,0x66f3,UKN
更,0x66f4,UKN
曷,0x66f7,UKN
書,0x66f8,UKN
曹,0x66f9,UKN
曼,0x66fc,UKN
曾,0x66fe,UKN
最,0x6700,UKN
會,0x6703,UKN
月,0x6708,UKN
有,0x6709,UKN
朋,0x670b,UKN
服,0x670d,UKN
朔,0x6714,UKN
朕,0x6715,UKN
朗,0x6717,UKN
望,0x671b,UKN
朝,0x671d,UKN
期,0x671f,UKN
木,0x6728,UKN
末,0x672b,UKN
本,0x672c,UKN
朱,0x6731,UKN
朵,0x6735,UKN
朶,0x6736,UKN
机,0x673a,UKN
杄,0x6744,UKN
杆,0x6746,UKN
李,0x674e,UKN
杏,0x674f,UKN
村,0x6751,UKN
杜,0x675c,UKN
束,0x675f,UKN
杭,0x676d,UKN
杯,0x676f,UKN
東,0x6771,UKN
杶,0x6776,UKN
松,0x677e,UKN
板,0x677f,UKN
枉,0x6789,UKN
枌,0x678c,UKN
林,0x6797,UKN
枚,0x679a,UKN
果,0x679c,UKN
枝,0x679d,UKN
枯,0x67af,UKN
架,0x67b6,UKN
枷,0x67b7,UKN
柏,0x67cf,UKN
染,0x67d3,UKN
查,0x67e5,UKN
柳,0x67f3,UKN
柴,0x67f4,UKN
栗,0x6817,UKN
栢,0x6822,UKN
核,0x6838,UKN
根,0x6839,UKN
格,0x683c,UKN
栽,0x683d,UKN
桂,0x6842,UKN
桃,0x6843,UKN
桄,0x6844,UKN
案,0x6848,UKN
桌,0x684c,UKN
桐,0x6850,UKN
桑,0x6851,UKN
桓,0x6853,UKN
桧,0x6867,UKN
梁,0x6881,UKN
梂,0x6882,UKN
梅,0x6885,UKN
梇,0x6887,UKN
梓,0x6893,UKN
梗,0x6897,UKN
條,0x689d,UKN
梞,0x689e,UKN
梧,0x68a7,UKN
梨,0x68a8,UKN
梭,0x68ad,UKN
棊,0x68ca,UKN
棋,0x68cb,UKN
棍,0x68cd,UKN
棟,0x68df,UKN
棠,0x68e0,UKN
森,0x68ee,UKN
棱,0x68f1,UKN
棹,0x68f9,UKN
椎,0x690e,UKN
椿,0x693f,UKN
楊,0x694a,UKN
楓,0x6953,UKN
楔,0x6954,UKN
楚,0x695a,UKN
業,0x696d,UKN
極,0x6975,UKN
楹,0x6979,UKN
楼,0x697c,UKN
楽,0x697d,UKN
榜,0x699c,UKN
榮,0x69ae,UKN
榴,0x69b4,UKN
槁,0x69c1,UKN
槊,0x69ca,UKN
槐,0x69d0,UKN
槓,0x69d3,UKN
槣,0x69e3,UKN
槾,0x69fe,UKN
樂,0x6a02,UKN
樋,0x6a0b,UKN
樑,0x6a11,UKN
樓,0x6a13,UKN
樔,0x6a14,UKN
標,0x6a19,UKN
樛,0x6a1b,UKN
模,0x6a21,UKN
樣,0x6a23,UKN
横,0x6a2a,UKN
樵,0x6a35,UKN
樸,0x6a38,UKN
樹,0x6a39,UKN
橋,0x6a4b,UKN
橑,0x6a51,UKN
橘,0x6a58,UKN
機,0x6a5f,UKN
橷,0x6a77,UKN
檑,0x6a91,UKN
檜,0x6a9c,UKN
櫃,0x6ac3,UKN
櫗,0x6ad7,UKN
櫬,0x6aec,UKN
欄,0x6b04,UKN
權,0x6b0a,UKN
次,0x6b21,UKN
欣,0x6b23,UKN
欧,0x6b27,UKN
欺,0x6b3a,UKN
欽,0x6b3d,UKN
歆,0x6b46,UKN
歇,0x6b47,UKN
歌,0x6b4c,UKN
歐,0x6b50,UKN
歡,0x6b61,UKN
正,0x6b63,UKN
此,0x6b64,UKN
步,0x6b65,UKN
武,0x6b66,UKN
歲,0x6b72,UKN
歳,0x6b73,UKN
歷,0x6b77,UKN
歸,0x6b78,UKN
歹,0x6b79,UKN
死,0x6b7b,UKN
残,0x6b8b,UKN
殘,0x6b98,UKN
殮,0x6bae,UKN
殯,0x6baf,UKN
段,0x6bb5,UKN
殷,0x6bb7,UKN
殺,0x6bba,UKN
母,0x6bcd,UKN
每,0x6bcf,UKN
毒,0x6bd2,UKN
毛,0x6bdb,UKN
毬,0x6bec,UKN
氏,0x6c0f,UKN
民,0x6c11,UKN
氣,0x6c23,UKN
水,0x6c34,UKN
氷,0x6c37,UKN
永,0x6c38,UKN
汀,0x6c40,UKN
求,0x6c42,UKN
汔,0x6c54,UKN
汜,0x6c5c,UKN
汝,0x6c5d,UKN
江,0x6c5f,UKN
池,0x6c60,UKN
污,0x6c61,UKN
汫,0x6c6b,UKN
汰,0x6c70,UKN
決,0x6c7a,UKN
沁,0x6c81,UKN
沉,0x6c89,UKN
沒,0x6c92,UKN
沔,0x6c94,UKN
沕,0x6c95,UKN
沙,0x6c99,UKN
沚,0x6c9a,UKN
沛,0x6c9b,UKN
沫,0x6cab,UKN
河,0x6cb3,UKN
油,0x6cb9,UKN
治,0x6cbb,UKN
況,0x6cc1,UKN
泉,0x6cc9,UKN
泊,0x6cca,UKN
法,0x6cd5,UKN
泙,0x6cd9,UKN
泛,0x6cdb,UKN
泠,0x6ce0,UKN
波,0x6ce2,UKN
泣,0x6ce3,UKN
泥,0x6ce5,UKN
注,0x6ce8,UKN
泰,0x6cf0,UKN
洁,0x6d01,UKN
洒,0x6d12,UKN
洗,0x6d17,UKN
洛,0x6d1b,UKN
洞,0x6d1e,UKN
洡,0x6d21,UKN
津,0x6d25,UKN
洩,0x6d29,UKN
洪,0x6d2a,UKN
洳,0x6d33,UKN
派,0x6d3e,UKN
流,0x6d41,UKN
浍,0x6d4d,UKN
浘,0x6d58,UKN
浡,0x6d61,UKN
浦,0x6d66,UKN
浪,0x6d6a,UKN
浮,0x6d6e,UKN
海,0x6d77,UKN
浸,0x6d78,UKN
浽,0x6d7d,UKN
涅,0x6d85,UKN
消,0x6d88,UKN
涓,0x6d93,UKN
涞,0x6d9e,UKN
涼,0x6dbc,UKN
淄,0x6dc4,UKN
淅,0x6dc5,UKN
淋,0x6dcb,UKN
淎,0x6dce,UKN
淑,0x6dd1,UKN
淖,0x6dd6,UKN
淚,0x6dda,UKN
淡,0x6de1,UKN
淤,0x6de4,UKN
淨,0x6de8,UKN
淩,0x6de9,UKN
淪,0x6dea,UKN
淫,0x6deb,UKN
淬,0x6dec,UKN
深,0x6df1,UKN
淶,0x6df6,UKN
淹,0x6df9,UKN
淺,0x6dfa,UKN
添,0x6dfb,UKN
渃,0x6e03,UKN
清,0x6e05,UKN
渚,0x6e1a,UKN
渡,0x6e21,UKN
渤,0x6e24,UKN
温,0x6e29,UKN
渭,0x6e2d,UKN
渴,0x6e34,UKN
游,0x6e38,UKN
湄,0x6e44,UKN
湖,0x6e56,UKN
湘,0x6e58,UKN
湛,0x6e5b,UKN
湥,0x6e65,UKN
湯,0x6e6f,UKN
湿,0x6e7f,UKN
溇,0x6e87,UKN
溋,0x6e8b,UKN
源,0x6e90,UKN
準,0x6e96,UKN
溟,0x6e9f,UKN
溦,0x6ea6,UKN
溪,0x6eaa,UKN
滂,0x6ec2,UKN
滇,0x6ec7,UKN
滈,0x6ec8,UKN
滑,0x6ed1,UKN
滕,0x6ed5,UKN
滛,0x6edb,UKN
滝,0x6edd,UKN
滲,0x6ef2,UKN
滾,0x6efe,UKN
漁,0x6f01,UKN
漂,0x6f02,UKN
漆,0x6f06,UKN
漊,0x6f0a,UKN
漏,0x6f0f,UKN
演,0x6f14,UKN
漠,0x6f20,UKN
漢,0x6f22,UKN
漿,0x6f3f,UKN
潔,0x6f54,UKN
潘,0x6f58,UKN
潙,0x6f59,UKN
潤,0x6f64,UKN
潦,0x6f66,UKN
潭,0x6f6d,UKN
潮,0x6f6e,UKN
潯,0x6f6f,UKN
潺,0x6f7a,UKN
澄,0x6f84,UKN
澗,0x6f97,UKN
澜,0x6f9c,UKN
澤,0x6fa4,UKN
澮,0x6fae,UKN
濁,0x6fc1,UKN
濃,0x6fc3,UKN
濕,0x6fd5,UKN
濛,0x6fdb,UKN
濟,0x6fdf,UKN
濠,0x6fe0,UKN
濤,0x6fe4,UKN
濫,0x6feb,UKN
濮,0x6fee,UKN
濯,0x6fef,UKN
瀉,0x7009,UKN
瀋,0x700b,UKN
瀕,0x7015,UKN
瀝,0x701d,UKN
火,0x706b,UKN
灰,0x7070,UKN
灵,0x7075,UKN
災,0x707d,UKN
灾,0x707e,UKN
炊,0x708a,UKN
炪,0x70aa,UKN
炭,0x70ad,UKN
炮,0x70ae,UKN
炵,0x70b5,UKN
点,0x70b9,UKN
為,0x70ba,UKN
烏,0x70cf,UKN
烝,0x70dd,UKN
烣,0x70e3,UKN
热,0x70ed,UKN
焒,0x7112,UKN
焠,0x7120,UKN
無,0x7121,UKN
焦,0x7126,UKN
然,0x7136,UKN
照,0x7167,UKN
煩,0x7169,UKN
熄,0x7184,UKN
熷,0x71b7,UKN
熾,0x71be,UKN
燃,0x71c3,UKN
燐,0x71d0,UKN
燒,0x71d2,UKN
燕,0x71d5,UKN
燥,0x71e5,UKN
燴,0x71f4,UKN
燶,0x71f6,UKN
爐,0x7210,UKN
爫,0x722b,UKN
爭,0x722d,UKN
爱,0x7231,UKN
爲,0x7232,UKN
父,0x7236,UKN
爺,0x723a,UKN
爻,0x723b,UKN
牌,0x724c,UKN
牙,0x7259,UKN
牛,0x725b,UKN
牟,0x725f,UKN
牡,0x7261,UKN
牢,0x7262,UKN
物,0x7269,UKN
特,0x7279,UKN
犒,0x7292,UKN
犬,0x72ac,UKN
犯,0x72af,UKN
状,0x72b6,UKN
狀,0x72c0,UKN
狐,0x72d0,UKN
狹,0x72f9,UKN
猪,0x732a,UKN
猫,0x732b,UKN
献,0x732e,UKN
猿,0x733f,UKN
獄,0x7344,UKN
獅,0x7345,UKN
獸,0x7378,UKN
玄,0x7384,UKN
率,0x7387,UKN
玉,0x7389,UKN
王,0x738b,UKN
玲,0x73b2,UKN
珍,0x73cd,UKN
珠,0x73e0,UKN
班,0x73ed,UKN
現,0x73fe,UKN
理,0x7406,UKN
琴,0x7434,UKN
瑁,0x7441,UKN
瑟,0x745f,UKN
瑤,0x7464,UKN
璘,0x7498,UKN
環,0x74b0,UKN
瓊,0x74ca,UKN
瓢,0x74e2,UKN
瓦,0x74e6,UKN
瓶,0x74f6,UKN
甘,0x7518,UKN
生,0x751f,UKN
産,0x7523,UKN
用,0x7528,UKN
田,0x7530,UKN
由,0x7531,UKN
甲,0x7532,UKN
申,0x7533,UKN
畑,0x7551,UKN
略,0x7565,UKN
畧,0x7567,UKN
畨,0x7568,UKN
番,0x756a,UKN
異,0x7570,UKN
當,0x7576,UKN
畿,0x757f,UKN
疎,0x758e,UKN
疏,0x758f,UKN
疑,0x7591,UKN
疚,0x759a,UKN
疸,0x75b8,UKN
疾,0x75be,UKN
病,0x75c5,UKN
痊,0x75ca,UKN
痕,0x75d5,UKN
痗,0x75d7,UKN
痚,0x75da,UKN
痴,0x75f4,UKN
瘼,0x763c,UKN
癋,0x764b,UKN
癒,0x7652,UKN
癸,0x7678,UKN
登,0x767b,UKN
發,0x767c,UKN
白,0x767d,UKN
百,0x767e,UKN
的,0x7684,UKN
皇,0x7687,UKN
皈,0x7688,UKN
皋,0x768b,UKN
皮,0x76ae,UKN
盃,0x76c3,UKN
盆,0x76c6,UKN
盈,0x76c8,UKN
益,0x76ca,UKN
盎,0x76ce,UKN
监,0x76d1,UKN
盘,0x76d8,UKN
盛,0x76db,UKN
盟,0x76df,UKN
盡,0x76e1,UKN
監,0x76e3,UKN
盤,0x76e4,UKN
盧,0x76e7,UKN
目,0x76ee,UKN
直,0x76f4,UKN
相,0x76f8,UKN
省,0x7701,UKN
眉,0x7709,UKN
看,0x770b,UKN
眜,0x771c,UKN
真,0x771f,UKN
眷,0x7737,UKN
眼,0x773c,UKN
眾,0x773e,UKN
督,0x7763,UKN
睹,0x7779,UKN
睽,0x777d,UKN
瞙,0x7799,UKN
矑,0x77d1,UKN
知,0x77e5,UKN
矧,0x77e7,UKN
矯,0x77ef,UKN
石,0x77f3,UKN
研,0x7814,UKN
破,0x7834,UKN
硃,0x7843,UKN
硯,0x786f,UKN
碍,0x788d,UKN
碎,0x788e,UKN
碑,0x7891,UKN
碧,0x78a7,UKN
磊,0x78ca,UKN
磋,0x78cb,UKN
磬,0x78ec,UKN
礙,0x7919,UKN
礬,0x792c,UKN
礼,0x793c,UKN
社,0x793e,UKN
祖,0x7956,UKN
祝,0x795d,UKN
神,0x795e,UKN
祠,0x7960,UKN
票,0x7968,UKN
祭,0x796d,UKN
祸,0x7978,UKN
祿,0x797f,UKN
禁,0x7981,UKN
禅,0x7985,UKN
禍,0x798d,UKN
福,0x798f,UKN
禽,0x79bd,UKN
秀,0x79c0,UKN
私,0x79c1,UKN
秉,0x79c9,UKN
秋,0x79cb,UKN
科,0x79d1,UKN
秦,0x79e6,UKN
秩,0x79e9,UKN
称,0x79f0,UKN
移,0x79fb,UKN
程,0x7a0b,UKN
種,0x7a2e,UKN
稱,0x7a31,UKN
稽,0x7a3d,UKN
稿,0x7a3f,UKN
積,0x7a4d,UKN
穩,0x7a69,UKN
穹,0x7a79,UKN
空,0x7a7a,UKN
突,0x7a81,UKN
窈,0x7a88,UKN
窒,0x7a92,UKN
窕,0x7a95,UKN
窖,0x7a96,UKN
窗,0x7a97,UKN
窘,0x7a98,UKN
窻,0x7abb,UKN
立,0x7acb,UKN
竜,0x7adc,UKN
章,0x7ae0,UKN
童,0x7ae5,UKN
端,0x7aef,UKN
競,0x7af6,UKN
竹,0x7af9,UKN
笈,0x7b08,UKN
笔,0x7b14,UKN
笘,0x7b18,UKN
笠,0x7b20,UKN
符,0x7b26,UKN
第,0x7b2c,UKN
筆,0x7b46,UKN
等,0x7b49,UKN
筒,0x7b52,UKN
筓,0x7b53,UKN
答,0x7b54,UKN
筝,0x7b5d,UKN
筠,0x7b60,UKN
筭,0x7b6d,UKN
箋,0x7b8b,UKN
箏,0x7b8f,UKN
箕,0x7b95,UKN
算,0x7b97,UKN
管,0x7ba1,UKN
箭,0x7bad,UKN
節,0x7bc0,UKN
篆,0x7bc6,UKN
篇,0x7bc7,UKN
篋,0x7bcb,UKN
篤,0x7be4,UKN
篭,0x7bed,UKN
篮,0x7bee,UKN
簪,0x7c2a,UKN
簮,0x7c2e,UKN
簾,0x7c3e,UKN
籠,0x7c60,UKN
粃,0x7c83,UKN
粉,0x7c89,UKN
粓,0x7c93,UKN
粘,0x7c98,UKN
粧,0x7ca7,UKN
精,0x7cbe,UKN
糁,0x7cc1,UKN
糊,0x7cca,UKN
糝,0x7cdd,UKN
糟,0x7cdf,UKN
糠,0x7ce0,UKN
紂,0x7d02,UKN
約,0x7d04,UKN
紅,0x7d05,UKN
紆,0x7d06,UKN
紇,0x7d07,UKN
紊,0x7d0a,UKN
納,0x7d0d,UKN
紏,0x7d0f,UKN
紗,0x7d17,UKN
紛,0x7d1b,UKN
紜,0x7d1c,UKN
索,0x7d22,UKN
紫,0x7d2b,UKN
累,0x7d2f,UKN
細,0x7d30,UKN
終,0x7d42,UKN
絃,0x7d43,UKN
絆,0x7d46,UKN
絏,0x7d4f,UKN
結,0x7d50,UKN
絖,0x7d56,UKN
絡,0x7d61,UKN
給,0x7d66,UKN
絩,0x7d69,UKN
統,0x7d71,UKN
絲,0x7d72,UKN
絶,0x7d76,UKN
綆,0x7d86,UKN
綏,0x7d8f,UKN
經,0x7d93,UKN
綠,0x7da0,UKN
綣,0x7da3,UKN
綱,0x7db1,UKN
網,0x7db2,UKN
綸,0x7db8,UKN
緘,0x7dd8,UKN
緡,0x7de1,UKN
緣,0x7de3,UKN
練,0x7df4,UKN
縁,0x7e01,UKN
縂,0x7e02,UKN
縚,0x7e1a,UKN
縣,0x7e23,UKN
縫,0x7e2b,UKN
縱,0x7e31,UKN
縸,0x7e38,UKN
總,0x7e3d,UKN
縿,0x7e3f,UKN
繁,0x7e41,UKN
繚,0x7e5a,UKN
繡,0x7e61,UKN
繩,0x7e69,UKN
纀,0x7e80,UKN
纏,0x7e8f,UKN
纓,0x7e93,UKN
绳,0x7ef3,UKN
闷,0x95f7,UKN
绳,0x7ef3,UKN
闷,0x95f7,UKN
罕,0x7f55,UKN
罪,0x7f6a,UKN
署,0x7f72,UKN
罷,0x7f77,UKN
羅,0x7f85,UKN
羕,0x7f95,UKN
羝,0x7f9d,UKN
羣,0x7fa3,UKN
群,0x7fa4,UKN
羨,0x7fa8,UKN
義,0x7fa9,UKN
羶,0x7fb6,UKN
羽,0x7fbd,UKN
翁,0x7fc1,UKN
翎,0x7fce,UKN
習,0x7fd2,UKN
翠,0x7fe0,UKN
翰,0x7ff0,UKN
翹,0x7ff9,UKN
老,0x8001,UKN
考,0x8003,UKN
者,0x8005,UKN
耒,0x8012,UKN
耗,0x8017,UKN
聀,0x8040,UKN
聖,0x8056,UKN
聘,0x8058,UKN
聰,0x8070,UKN
肉,0x8089,UKN
肔,0x8094,UKN
肝,0x809d,UKN
育,0x80b2,UKN
胞,0x80de,UKN
胡,0x80e1,UKN
胣,0x80e3,UKN
胤,0x80e4,UKN
能,0x80fd,UKN
脈,0x8108,UKN
脉,0x8109,UKN
脩,0x8129,UKN
脱,0x8131,UKN
腋,0x814b,UKN
腑,0x8151,UKN
腔,0x8154,UKN
腛,0x815b,UKN
腥,0x8165,UKN
腰,0x8170,UKN
腳,0x8173,UKN
腸,0x8178,UKN
腹,0x8179,UKN
腿,0x817f,UKN
膝,0x819d,UKN
膠,0x81a0,UKN
臣,0x81e3,UKN
臨,0x81e8,UKN
自,0x81ea,UKN
致,0x81f4,UKN
臺,0x81fa,UKN
舅,0x8205,UKN
與,0x8207,UKN
興,0x8208,UKN
舌,0x820c,UKN
舍,0x820d,UKN
舘,0x8218,UKN
舜,0x821c,UKN
船,0x8239,UKN
艔,0x8254,UKN
艚,0x825a,UKN
艤,0x8264,UKN
良,0x826f,UKN
艱,0x8271,UKN
色,0x8272,UKN
芃,0x8283,UKN
芇,0x8287,UKN
芒,0x8292,UKN
芙,0x8299,UKN
花,0x82b1,UKN
芸,0x82b8,UKN
芹,0x82b9,UKN
芼,0x82bc,UKN
苓,0x82d3,UKN
苔,0x82d4,UKN
苝,0x82dd,UKN
苦,0x82e6,UKN
英,0x82f1,UKN
茄,0x8304,UKN
茌,0x830c,UKN
茦,0x8326,UKN
茫,0x832b,UKN
茶,0x8336,UKN
茹,0x8339,UKN
荄,0x8344,UKN
荆,0x8346,UKN
草,0x8349,UKN
荑,0x8351,UKN
荒,0x8352,UKN
荘,0x8358,UKN
荣,0x8363,UKN
荼,0x837c,UKN
莂,0x8382,UKN
莊,0x838a,UKN
莫,0x83ab,UKN
莺,0x83ba,UKN
莽,0x83bd,UKN
菊,0x83ca,UKN
菓,0x83d3,UKN
菩,0x83e9,UKN
菫,0x83eb,UKN
華,0x83ef,UKN
菲,0x83f2,UKN
萊,0x840a,UKN
萌,0x840c,UKN
萍,0x840d,UKN
萡,0x8421,UKN
营,0x8425,UKN
萦,0x8426,UKN
萬,0x842c,UKN
萱,0x8431,UKN
萼,0x843c,UKN
落,0x843d,UKN
葉,0x8449,UKN
葑,0x8451,UKN
葚,0x845a,UKN
葛,0x845b,UKN
董,0x8463,UKN
葦,0x8466,UKN
葬,0x846c,UKN
葵,0x8475,UKN
蒌,0x848c,UKN
蒙,0x8499,UKN
蒲,0x84b2,UKN
蒸,0x84b8,UKN
蒼,0x84bc,UKN
蓉,0x84c9,UKN
蓋,0x84cb,UKN
蓐,0x84d0,UKN
蓓,0x84d3,UKN
蓬,0x84ec,UKN
蓮,0x84ee,UKN
蓴,0x84f4,UKN
蔓,0x8513,UKN
蔞,0x851e,UKN
蔠,0x8520,UKN
蔭,0x852d,UKN
蕉,0x8549,UKN
蕊,0x854a,UKN
蕋,0x854b,UKN
蕙,0x8559,UKN
蕩,0x8569,UKN
蕭,0x856d,UKN
薄,0x8584,UKN
藍,0x85cd,UKN
藏,0x85cf,UKN
藝,0x85dd,UKN
藟,0x85df,UKN
藤,0x85e4,UKN
藩,0x85e9,UKN
蘂,0x8602,UKN
蘆,0x8606,UKN
蘇,0x8607,UKN
蘭,0x862d,UKN
蘼,0x863c,UKN
虎,0x864e,UKN
虐,0x8650,UKN
處,0x8655,UKN
虚,0x865a,UKN
號,0x865f,UKN
虧,0x8667,UKN
蚕,0x8695,UKN
蛉,0x86c9,UKN
蛟,0x86df,UKN
蛮,0x86ee,UKN
蛾,0x86fe,UKN
蜀,0x8700,UKN
蜂,0x8702,UKN
蜆,0x8706,UKN
蜉,0x8709,UKN
蜍,0x870d,UKN
蜞,0x871e,UKN
蝎,0x874e,UKN
蝒,0x8752,UKN
蝣,0x8763,UKN
蝳,0x8773,UKN
蝴,0x8774,UKN
蝶,0x8776,UKN
蝼,0x877c,UKN
螉,0x8789,UKN
螠,0x87a0,UKN
蟡,0x87e1,UKN
蠟,0x881f,UKN
蠲,0x8832,UKN
蠶,0x8836,UKN
行,0x884c,UKN
衙,0x8859,UKN
衛,0x885b,UKN
衝,0x885d,UKN
衣,0x8863,UKN
表,0x8868,UKN
衰,0x8870,UKN
衷,0x8877,UKN
衾,0x887e,UKN
袄,0x8884,UKN
袈,0x8888,UKN
袍,0x888d,UKN
袞,0x889e,UKN
袩,0x88a9,UKN
被,0x88ab,UKN
裊,0x88ca,UKN
裕,0x88d5,UKN
裙,0x88d9,UKN
補,0x88dc,UKN
裝,0x88dd,UKN
裟,0x88df,UKN
裴,0x88f4,UKN
製,0x88fd,UKN
襊,0x894a,UKN
襖,0x8956,UKN
襘,0x8958,UKN
襜,0x895c,UKN
襲,0x8972,UKN
西,0x897f,UKN
要,0x8981,UKN
見,0x898b,UKN
規,0x898f,UKN
覔,0x8994,UKN
覩,0x89a9,UKN
親,0x89aa,UKN
覺,0x89ba,UKN
觀,0x89c0,UKN
解,0x89e3,UKN
言,0x8a00,UKN
計,0x8a08,UKN
討,0x8a0e,UKN
訓,0x8a13,UKN
託,0x8a17,UKN
記,0x8a18,UKN
訛,0x8a1b,UKN
訟,0x8a1f,UKN
訢,0x8a22,UKN
訣,0x8a23,UKN
訪,0x8a2a,UKN
設,0x8a2d,UKN
許,0x8a31,UKN
訴,0x8a34,UKN
診,0x8a3a,UKN
註,0x8a3b,UKN
証,0x8a3c,UKN
詐,0x8a50,UKN
詔,0x8a54,UKN
詞,0x8a5e,UKN
詠,0x8a60,UKN
詩,0x8a69,UKN
詫,0x8a6b,UKN
詳,0x8a73,UKN
誓,0x8a93,UKN
誘,0x8a98,UKN
語,0x8a9e,UKN
誠,0x8aa0,UKN
誣,0x8aa3,UKN
説,0x8aac,UKN
誰,0x8ab0,UKN
課,0x8ab2,UKN
調,0x8abf,UKN
請,0x8acb,UKN
諒,0x8ad2,UKN
論,0x8ad6,UKN
諧,0x8ae7,UKN
諸,0x8af8,UKN
謀,0x8b00,UKN
謝,0x8b1d,UKN
謨,0x8b28,UKN
謹,0x8b39,UKN
證,0x8b49,UKN
譖,0x8b56,UKN
譜,0x8b5c,UKN
警,0x8b66,UKN
議,0x8b70,UKN
護,0x8b77,UKN
讀,0x8b80,UKN
變,0x8b8a,UKN
讎,0x8b8e,UKN
讓,0x8b93,UKN
讖,0x8b96,UKN
谷,0x8c37,UKN
豆,0x8c46,UKN
豐,0x8c50,UKN
象,0x8c61,UKN
豪,0x8c6a,UKN
貂,0x8c82,UKN
貌,0x8c8c,UKN
貝,0x8c9d,UKN
貞,0x8c9e,UKN
負,0x8ca0,UKN
財,0x8ca1,UKN
貢,0x8ca2,UKN
貪,0x8caa,UKN
貫,0x8cab,UKN
責,0x8cac,UKN
貴,0x8cb4,UKN
買,0x8cb7,UKN
費,0x8cbb,UKN
賀,0x8cc0,UKN
資,0x8cc7,UKN
賊,0x8cca,UKN
賍,0x8ccd,UKN
賒,0x8cd2,UKN
賖,0x8cd6,UKN
賜,0x8cdc,UKN
賞,0x8cde,UKN
賠,0x8ce0,UKN
賤,0x8ce4,UKN
賦,0x8ce6,UKN
質,0x8cea,UKN
賸,0x8cf8,UKN
贈,0x8d08,UKN
贖,0x8d16,UKN
赤,0x8d64,UKN
赴,0x8d74,UKN
起,0x8d77,UKN
趂,0x8d82,UKN
超,0x8d85,UKN
越,0x8d8a,UKN
趙,0x8d99,UKN
趣,0x8da3,UKN
足,0x8db3,UKN
跡,0x8de1,UKN
跢,0x8de2,UKN
跪,0x8dea,UKN
跬,0x8dec,UKN
路,0x8def,UKN
踈,0x8e08,UKN
踏,0x8e0f,UKN
踣,0x8e23,UKN
踦,0x8e26,UKN
踸,0x8e38,UKN
蹅,0x8e45,UKN
蹎,0x8e4e,UKN
蹺,0x8e7a,UKN
躇,0x8e87,UKN
躡,0x8ea1,UKN
身,0x8eab,UKN
躬,0x8eac,UKN
車,0x8eca,UKN
軍,0x8ecd,UKN
軒,0x8ed2,UKN
軟,0x8edf,UKN
軫,0x8eeb,UKN
載,0x8f09,UKN
輕,0x8f15,UKN
輦,0x8f26,UKN
輸,0x8f38,UKN
轅,0x8f45,UKN
轉,0x8f49,UKN
轎,0x8f4e,UKN
辜,0x8f9c,UKN
辝,0x8f9d,UKN
辞,0x8f9e,UKN
辣,0x8fa3,UKN
辨,0x8fa8,UKN
辰,0x8fb0,UKN
辱,0x8fb1,UKN
農,0x8fb2,UKN
边,0x8fb9,UKN
过,0x8fc7,UKN
迍,0x8fcd,UKN
迎,0x8fce,UKN
返,0x8fd4,UKN
还,0x8fd8,UKN
迡,0x8fe1,UKN
迢,0x8fe2,UKN
迭,0x8fed,UKN
述,0x8ff0,UKN
迷,0x8ff7,UKN
迻,0x8ffb,UKN
追,0x8ffd,UKN
退,0x9000,UKN
送,0x9001,UKN
逅,0x9005,UKN
逍,0x900d,UKN
透,0x900f,UKN
逐,0x9010,UKN
途,0x9014,UKN
這,0x9019,UKN
通,0x901a,UKN
速,0x901f,UKN
造,0x9020,UKN
逢,0x9022,UKN
連,0x9023,UKN
逴,0x9034,UKN
逵,0x9035,UKN
逸,0x9038,UKN
遁,0x9041,UKN
遄,0x9044,UKN
遇,0x9047,UKN
遊,0x904a,UKN
運,0x904b,UKN
過,0x904e,UKN
道,0x9053,UKN
達,0x9054,UKN
遙,0x9059,UKN
遠,0x9060,UKN
遣,0x9063,UKN
遲,0x9072,UKN
遴,0x9074,UKN
選,0x9078,UKN
遺,0x907a,UKN
遼,0x907c,UKN
避,0x907f,UKN
邂,0x9082,UKN
還,0x9084,UKN
邑,0x9091,UKN
邒,0x9092,UKN
那,0x90a3,UKN
邪,0x90aa,UKN
郎,0x90ce,UKN
郑,0x90d1,UKN
郡,0x90e1,UKN
部,0x90e8,UKN
郭,0x90ed,UKN
都,0x90fd,UKN
鄕,0x9115,UKN
鄧,0x9127,UKN
鄭,0x912d,UKN
鄰,0x9130,UKN
酉,0x9149,UKN
酋,0x914b,UKN
配,0x914d,UKN
酒,0x9152,UKN
酢,0x9162,UKN
酬,0x916c,UKN
酷,0x9177,UKN
醒,0x9192,UKN
醜,0x919c,UKN
醝,0x919d,UKN
醬,0x91ac,UKN
醯,0x91af,UKN
采,0x91c7,UKN
里,0x91cc,UKN
重,0x91cd,UKN
野,0x91ce,UKN
量,0x91cf,UKN
金,0x91d1,UKN
釘,0x91d8,UKN
針,0x91dd,UKN
釧,0x91e7,UKN
釵,0x91f5,UKN
鈌,0x920c,UKN
鈎,0x920e,UKN
鈘,0x9218,UKN
鈞,0x921e,UKN
鈽,0x923d,UKN
鉄,0x9244,UKN
鉆,0x9246,UKN
鉋,0x924b,UKN
鉑,0x9251,UKN
鉢,0x9262,UKN
鉦,0x9266,UKN
銀,0x9280,UKN
銃,0x9283,UKN
銅,0x9285,UKN
銘,0x9298,UKN
鋒,0x92d2,UKN
鋪,0x92ea,UKN
鋸,0x92f8,UKN
錁,0x9301,UKN
錄,0x9304,UKN
錢,0x9322,UKN
錦,0x9326,UKN
錫,0x932b,UKN
鍮,0x936e,UKN
鍾,0x937e,UKN
鎌,0x938c,UKN
鎖,0x9396,UKN
鏡,0x93e1,UKN
鐄,0x9404,UKN
鐐,0x9410,UKN
鑅,0x9445,UKN
鑔,0x9454,UKN
鑿,0x947f,UKN
钱,0x94b1,UKN
長,0x9577,UKN
門,0x9580,UKN
閉,0x9589,UKN
閍,0x958d,UKN
閒,0x9592,UKN
間,0x9593,UKN
関,0x95a2,UKN
閣,0x95a3,UKN
閨,0x95a8,UKN
關,0x95dc,UKN
门,0x95e8,UKN
闭,0x95ed,UKN
问,0x95ee,UKN
闰,0x95f0,UKN
闲,0x95f2,UKN
间,0x95f4,UKN
阁,0x9601,UKN
阎,0x960e,UKN
阡,0x9621,UKN
防,0x9632,UKN
阳,0x9633,UKN
阻,0x963b,UKN
陀,0x9640,UKN
陆,0x9646,UKN
降,0x964d,UKN
限,0x9650,UKN
陛,0x965b,UKN
陟,0x965f,UKN
院,0x9662,UKN
陣,0x9663,UKN
除,0x9664,UKN
陰,0x9670,UKN
陲,0x9672,UKN
陳,0x9673,UKN
陵,0x9675,UKN
陸,0x9678,UKN
陽,0x967d,UKN
隂,0x9682,UKN
隊,0x968a,UKN
隍,0x968d,UKN
階,0x968e,UKN
隐,0x9690,UKN
隔,0x9694,UKN
隘,0x9698,UKN
隣,0x96a3,UKN
隨,0x96a8,UKN
險,0x96aa,UKN
隱,0x96b1,UKN
隻,0x96bb,UKN
难,0x96be,UKN
雀,0x96c0,UKN
雁,0x96c1,UKN
雄,0x96c4,UKN
雅,0x96c5,UKN
集,0x96c6,UKN
雉,0x96c9,UKN
雎,0x96ce,UKN
雖,0x96d6,UKN
離,0x96e2,UKN
難,0x96e3,UKN
雪,0x96ea,UKN
雲,0x96f2,UKN
雷,0x96f7,UKN
霆,0x9706,UKN
霜,0x971c,UKN
霞,0x971e,UKN
霧,0x9727,UKN
霪,0x972a,UKN
露,0x9732,UKN
青,0x9752,UKN
靖,0x9756,UKN
非,0x975e,UKN
面,0x9762,UKN
革,0x9769,UKN
鞋,0x978b,UKN
鞍,0x978d,UKN
鞭,0x97ad,UKN
韜,0x97dc,UKN
韯,0x97ef,UKN
音,0x97f3,UKN
韶,0x97f6,UKN
韻,0x97fb,UKN
頂,0x9802,UKN
頃,0x9803,UKN
項,0x9805,UKN
順,0x9806,UKN
須,0x9808,UKN
預,0x9810,UKN
頑,0x9811,UKN
頒,0x9812,UKN
領,0x9818,UKN
頭,0x982d,UKN
頷,0x9837,UKN
頽,0x983d,UKN
題,0x984c,UKN
額,0x984d,UKN
顒,0x9852,UKN
顔,0x9854,UKN
顕,0x9855,UKN
願,0x9858,UKN
顛,0x985b,UKN
類,0x985e,UKN
顧,0x9867,UKN
顯,0x986f,UKN
風,0x98a8,UKN
风,0x98ce,UKN
飛,0x98db,UKN
食,0x98df,UKN
飭,0x98ed,UKN
養,0x990a,UKN
餒,0x9912,UKN
餘,0x9918,UKN
餞,0x991e,UKN
館,0x9928,UKN
饒,0x9952,UKN
首,0x9996,UKN
香,0x9999,UKN
馬,0x99ac,UKN
馭,0x99ad,UKN
駐,0x99d0,UKN
駒,0x99d2,UKN
駕,0x99d5,UKN
駟,0x99df,UKN
駭,0x99ed,UKN
騎,0x9a0e,UKN
騰,0x9a30,UKN
騷,0x9a37,UKN
驚,0x9a5a,UKN
驢,0x9a62,UKN
验,0x9a8c,UKN
骨,0x9aa8,UKN
骸,0x9ab8,UKN
高,0x9ad8,UKN
髙,0x9ad9,UKN
鬟,0x9b1f,UKN
鬼,0x9b3c,UKN
魁,0x9b41,UKN
魂,0x9b42,UKN
魄,0x9b44,UKN
魔,0x9b54,UKN
魚,0x9b5a,UKN
魯,0x9b6f,UKN
鮮,0x9bae,UKN
鯨,0x9be8,UKN
鯺,0x9bfa,UKN
鰐,0x9c10,UKN
鱗,0x9c57,UKN
鱼,0x9c7c,UKN
鳩,0x9ce9,UKN
鳯,0x9cef,UKN
鳳,0x9cf3,UKN
鴈,0x9d08,UKN
鴛,0x9d1b,UKN
鴦,0x9d26,UKN
鴻,0x9d3b,UKN
鵉,0x9d49,UKN
鵑,0x9d51,UKN
鵠,0x9d60,UKN
鵬,0x9d6c,UKN
鵶,0x9d76,UKN
鶴,0x9db4,UKN
鷹,0x9df9,UKN
鸚,0x9e1a,UKN
鸾,0x9e3e,UKN
鹿,0x9e7f,UKN
麋,0x9e8b,UKN
麗,0x9e97,UKN
麻,0x9ebb,UKN
黃,0x9ec3,UKN
黄,0x9ec4,UKN
默,0x9ed8,UKN
點,0x9ede,UKN
鼎,0x9f0e,UKN
鼓,0x9f13,UKN
鼔,0x9f14,UKN
鼙,0x9f19,UKN
齊,0x9f4a,UKN
齋,0x9f4b,UKN
齒,0x9f52,UKN
龎,0x9f8e,UKN
龱,0x9fb1,UKN
﨤,0xfa24,UKN
󰜩,0xf0729,UKN
󰞺,0xf07ba,UKN
󰖌,0xf058c,UKN
󰞽,0xf07bd,UKN
𫽘,0x2bf58,UKN
𫥨,0x2b968,UKN
󰞻,0xf07bb,UKN
󰘂,0xf0602,UKN
󰣢,0xf08e2,UKN
󰋇,0xf02c7,UKN
󰼲,0xf0f32,UKN
󰜏,0xf070f,UKN
󰋇,0xf02c7,UKN
󰍹,0xf0379,UKN
𫴋,0x2bd0b,UKN
𫯳,0x2bbf3,UKN
𫽻,0x2bf7b,UKN
󰋞,0xf02de,UKN
𭝫,0x2d76b,UKN
𫥨,0x2b968,UKN
󰞺,0xf07ba,UKN
𫨩,0x2ba29,UKN
𫴋,0x2bd0b,UKN
𫥨,0x2b968,UKN
󰞺,0xf07ba,UKN
𫥨,0x2b968,UKN
󰋇,0xf02c7,UKN
󰠐,0xf0810,UKN
󰟱,0xf07f1,UKN
󰠱,0xf0831,UKN
𫽻,0x2bf7b,UKN
𫷜,0x2bddc,UKN
𫨩,0x2ba29,UKN
𫮇,0x2bb87,UKN
󰅒,0xf0152,UKN
𫺴,0x2beb4,UKN
󰋇,0xf02c7,UKN
𫥨,0x2b968,UKN
󰖌,0xf058c,UKN
󰠐,0xf0810,UKN
󰝂,0xf0742,UKN
𫥨,0x2b968,UKN
󰟯,0xf07ef,UKN
𫥨,0x2b968,UKN
𬏝,0x2c3dd,UKN
𫥨,0x2b968,UKN
󰞽,0xf07bd,UKN
󱇩,0xf11e9,UKN
𫣂,0x2b8c2,UKN
𫨩,0x2ba29,UKN
󰣞,0xf08de,UKN
󰏻,0xf03fb,UKN
𭓇,0x2d4c7,UKN
󰋇,0xf02c7,UKN
󰘂,0xf0602,UKN
𭓇,0x2d4c7,UKN
󰞺,0xf07ba,UKN
󰠐,0xf0810,UKN
𫥨,0x2b968,UKN
𫢩,0x2b8a9,UKN
󰟯,0xf07ef,UKN
𫥨,0x2b968,UKN
𬛩,0x2c6e9,UKN
𫥨,0x2b968,UKN
󰋇,0xf02c7,UKN
𫥨,0x2b968,UKN
󰞽,0xf07bd,UKN
𫢩,0x2b8a9,UKN
󰋇,0xf02c7,UKN
𬗢,0x2c5e2,UKN
󰠐,0xf0810,UKN
󰍹,0xf0379,UKN
󰅒,0xf0152,UKN
󰋇,0xf02c7,UKN
𬌓,0x2c313,UKN
𬏝,0x2c3dd,UKN
󱁲,0xf1072,UKN
󰞺,0xf07ba,UKN
𬌓,0x2c313,UKN
󰟯,0xf07ef,UKN
󰝂,0xf0742,UKN
𫢩,0x2b8a9,UKN
𫥨,0x2b968,UKN
󰟯,0xf07ef,UKN
𫮇,0x2bb87,UKN
󱊫,0xf12ab,UKN
󰞺,0xf07ba,UKN
𫨩,0x2ba29,UKN
𫷜,0x2bddc,UKN
𬏝,0x2c3dd,UKN
𫥨,0x2b968,UKN
𫢩,0x2b8a9,UKN
󰝂,0xf0742,UKN
󰖌,0xf058c,UKN
𫥨,0x2b968,UKN
󰘂,0xf0602,UKN
𫤾,0x2b93e,UKN
󰣣,0xf08e3,UKN
󰣤,0xf08e4,UKN
󰼲,0xf0f32,UKN
𫷜,0x2bddc,UKN
󰣥,0xf08e5,UKN
𬗢,0x2c5e2,UKN
𫢩,0x2b8a9,UKN
𫥨,0x2b968,UKN
󰕔,0xf0554,UKN
𫥨,0x2b968,UKN
𬮦,0x2cba6,UKN
󰋞,0xf02de,UKN
𫨩,0x2ba29,UKN
𫥨,0x2b968,UKN
󰞺,0xf07ba,UKN
𬌓,0x2c313,UKN
󰟯,0xf07ef,UKN
𫥨,0x2b968,UKN
󰂤,0xf00a4,UKN
𫷜,0x2bddc,UKN
𫢩,0x2b8a9,UKN
𬙾,0x2c67e,UKN
󰇏,0xf01cf,UKN
𫥨,0x2b968,UKN
󰘂,0xf0602,UKN
𫥨,0x2b968,UKN
󰘂,0xf0602,UKN
𫽻,0x2bf7b,UKN
𫨩,0x2ba29,UKN
󰑚,0xf045a,UKN
𫷜,0x2bddc,UKN
󰠐,0xf0810,UKN
𫢩,0x2b8a9,UKN
𬆄,0x2c184,UKN
󰋇,0xf02c7,UKN
󰞽,0xf07bd,UKN
𬌥,0x2c325,UKN
󰜩,0xf0729,UKN
𫥨,0x2b968,UKN
󰞺,0xf07ba,UKN
󰠱,0xf0831,UKN
𭛣,0x2d6e3,UKN
󰠐,0xf0810,UKN
𭛣,0x2d6e3,UKN
𬏝,0x2c3dd,UKN
󰝂,0xf0742,UKN
󰛩,0xf06e9,UKN
𫥨,0x2b968,UKN
󰋇,0xf02c7,UKN
󰞺,0xf07ba,UKN
󰀩,0xf0029,UKN
𭛣,0x2d6e3,UKN
󰋇,0xf02c7,UKN
𫨩,0x2ba29,UKN
𫥨,0x2b968,UKN
𭛣,0x2d6e3,UKN
󰋇,0xf02c7,UKN
󰘂,0xf0602,UKN
𬌥,0x2c325,UKN
󰒂,0xf0482,UKN
𫴋,0x2bd0b,UKN
𫥨,0x2b968,UKN
𬌓,0x2c313,UKN
󰞺,0xf07ba,UKN
󰋞,0xf02de,UKN
𫯳,0x2bbf3,UKN
𫥨,0x2b968,UKN
𫨩,0x2ba29,UKN
󰞺,0xf07ba,UKN
󰒂,0xf0482,UKN
𬮙,0x2cb99,UKN
𫥨,0x2b968,UKN
󰍹,0xf0379,UKN
󰋇,0xf02c7,UKN
󰁇,0xf0047,UKN
𫥨,0x2b968,UKN
󰜏,0xf070f,UKN
𭉑,0x2d251,UKN
󰏀,0xf03c0,UKN
󰝂,0xf0742,UKN
󰠐,0xf0810,UKN
󰋇,0xf02c7,UKN
𫮇,0x2bb87,UKN
󰠱,0xf0831,UKN
𫥨,0x2b968,UKN
󰒂,0xf0482,UKN
𬌓,0x2c313,UKN
𫥨,0x2b968,UKN
󰜏,0xf070f,UKN
󰀢,0xf0022,UKN
󰖁,0xf0581,UKN
󰠱,0xf0831,UKN
󱋔,0xf12d4,UKN
󰎡,0xf03a1,UKN
𬰊,0x2cc0a,UKN
󰘂,0xf0602,UKN
𫥨,0x2b968,UKN
󰣦,0xf08e6,UKN
󰋇,0xf02c7,UKN
𫢩,0x2b8a9,UKN
󰇏,0xf01cf,UKN
𫴋,0x2bd0b,UKN
𭝫,0x2d76b,UKN
𬮙,0x2cb99,UKN
󰘂,0xf0602,UKN
𫥨,0x2b968,UKN
󰜏,0xf070f,UKN
𫵇,0x2bd47,UKN
𬏝,0x2c3dd,UKN
󰖌,0xf058c,UKN
𫥨,0x2b968,UKN
𫨩,0x2ba29,UKN
𫯳,0x2bbf3,UKN
󰝂,0xf0742,UKN
𫥨,0x2b968,UKN
𬦳,0x2c9b3,UKN
𫨩,0x2ba29,UKN
󰠱,0xf0831,UKN
󰜏,0xf070f,UKN
󰋇,0xf02c7,UKN
𫨩,0x2ba29,UKN
󰋇,0xf02c7,UKN
󰣆,0xf08c6,UKN
𬌓,0x2c313,UKN
󰛩,0xf06e9,UKN
𬌓,0x2c313,UKN
󰘂,0xf0602,UKN
󰋇,0xf02c7,UKN
󰘂,0xf0602,UKN
𫥨,0x2b968,UKN
󰋇,0xf02c7,UKN
𭊕,0x2d295,UKN
𫥨,0x2b968,UKN
󰢒,0xf0892,UKN
𬮙,0x2cb99,UKN
𫥨,0x2b968,UKN
𬑉,0x2c449,UKN
𫴋,0x2bd0b,UKN
𫮇,0x2bb87,UKN
󰍹,0xf0379,UKN
𬷤,0x2cde4,UKN
𫮇,0x2bb87,UKN
𫴋,0x2bd0b,UKN
󰜏,0xf070f,UKN
󰜗,0xf0717,UKN
󰜏,0xf070f,UKN
󰘂,0xf0602,UKN
𫥨,0x2b968,UKN
󰋇,0xf02c7,UKN
𫢩,0x2b8a9,UKN
𫥨,0x2b968,UKN
𫫵,0x2baf5,UKN
𫥨,0x2b968,UKN
𫨩,0x2ba29,UKN
󰢒,0xf0892,UKN
𫫵,0x2baf5,UKN
𫴋,0x2bd0b,UKN
𬉣,0x2c263,UKN
󰀢,0xf0022,UKN
𬰊,0x2cc0a,UKN
󰜏,0xf070f,UKN
󰖌,0xf058c,UKN
𫨩,0x2ba29,UKN
𬙞,0x2c65e,UKN
󰇏,0xf01cf,UKN
󰞺,0xf07ba,UKN
󰖌,0xf058c,UKN
󰞺,0xf07ba,UKN
󰋇,0xf02c7,UKN
󰟯,0xf07ef,UKN
󰞺,0xf07ba,UKN
󰟯,0xf07ef,UKN
󰘂,0xf0602,UKN
𫨩,0x2ba29,UKN
𬗢,0x2c5e2,UKN
󰇏,0xf01cf,UKN
󰞺,0xf07ba,UKN
󰑚,0xf045a,UKN
𫥨,0x2b968,UKN
𬏝,0x2c3dd,UKN
𭛣,0x2d6e3,UKN
󰒂,0xf0482,UKN
𫢩,0x2b8a9,UKN
󰞽,0xf07bd,UKN
𫥨,0x2b968,UKN
󰟯,0xf07ef,UKN
𫺴,0x2beb4,UKN
𬁑,0x2c051,UKN
󰞺,0xf07ba,UKN
󰝂,0xf0742,UKN
󰞺,0xf07ba,UKN
𫨩,0x2ba29,UKN
𫢩,0x2b8a9,UKN
𫥨,0x2b968,UKN
𬌓,0x2c313,UKN
𬮙,0x2cb99,UKN
𫥨,0x2b968,UKN
󰡫,0xf086b,UKN
𫴋,0x2bd0b,UKN
𫥨,0x2b968,UKN
𬉣,0x2c263,UKN
𫨩,0x2ba29,UKN
󰛩,0xf06e9,UKN
󰜏,0xf070f,UKN
󰘂,0xf0602,UKN
󰣭,0xf08ed,UKN
󰠱,0xf0831,UKN
󰘂,0xf0602,UKN
𫥨,0x2b968,UKN
󰞺,0xf07ba,UKN
𫥨,0x2b968,UKN
󰋇,0xf02c7,UKN
𭁈,0x2d048,UKN
󰘂,0xf0602,UKN
󰞺,0xf07ba,UKN
𬁑,0x2c051,UKN
𫥨,0x2b968,UKN
󰟯,0xf07ef,UKN
𫥨,0x2b968,UKN
󰟱,0xf07f1,UKN
𫥨,0x2b968,UKN
󱋓,0xf12d3,UKN
𬮦,0x2cba6,UKN
𫥨,0x2b968,UKN
󰋇,0xf02c7,UKN
𬮦,0x2cba6,UKN
󱋓,0xf12d3,UKN
󰣮,0xf08ee,UKN
󰒂,0xf0482,UKN
𫥨,0x2b968,UKN
𭛣,0x2d6e3,UKN
󱋓,0xf12d3,UKN
𫢩,0x2b8a9,UKN
󱋓,0xf12d3,UKN
𬮦,0x2cba6,UKN
󰋇,0xf02c7,UKN
𬮙,0x2cb99,UKN
󰞺,0xf07ba,UKN
𫨩,0x2ba29,UKN
𭛣,0x2d6e3,UKN
󱋓,0xf12d3,UKN
𫨩,0x2ba29,UKN
𫫗,0x2bad7,UKN
𫥨,0x2b968,UKN
𫯳,0x2bbf3,UKN
𭁈,0x2d048,UKN
𫥨,0x2b968,UKN
𫴋,0x2bd0b,UKN
󱋓,0xf12d3,UKN
𫥨,0x2b968,UKN
󰋇,0xf02c7,UKN
𬮦,0x2cba6,UKN
󰋇,0xf02c7,UKN
󰖁,0xf0581,UKN
󰍡,0xf0361,UKN
󰝂,0xf0742,UKN
𫥨,0x2b968,UKN
𫬍,0x2bb0d,UKN
𬁖,0x2c056,UKN
𫢋,0x2b88b,UKN
𭝫,0x2d76b,UKN
𫥨,0x2b968,UKN
𬘏,0x2c60f,UKN
󰝂,0xf0742,UKN
𫨩,0x2ba29,UKN
󰖌,0xf058c,UKN
󰞺,0xf07ba,UKN
󰖌,0xf058c,UKN
𫨩,0x2ba29,UKN
𭛣,0x2d6e3,UKN
󰋇,0xf02c7,UKN
𫨩,0x2ba29,UKN
󰝂,0xf0742,UKN
𫴋,0x2bd0b,UKN
󰝂,0xf0742,UKN
𫴋,0x2bd0b,UKN
󰘂,0xf0602,UKN
𫴋,0x2bd0b,UKN
󰜏,0xf070f,UKN
𫯳,0x2bbf3,UKN
𫥨,0x2b968,UKN
󰝂,0xf0742,UKN
󰘂,0xf0602,UKN
𫥨,0x2b968,UKN
󰞺,0xf07ba,UKN
𫥨,0x2b968,UKN
󰞺,0xf07ba,UKN
𫥨,0x2b968,UKN
𫨩,0x2ba29,UKN
󰞺,0xf07ba,UKN
𫥨,0x2b968,UKN
󰘂,0xf0602,UKN
𬗢,0x2c5e2,UKN
𫥨,0x2b968,UKN
󰊾,0xf02be,UKN
𫴋,0x2bd0b,UKN
𫥨,0x2b968,UKN
𭛣,0x2d6e3,UKN
󱋓,0xf12d3,UKN
𫯳,0x2bbf3,UKN
󱋓,0xf12d3,UKN
𬏝,0x2c3dd,UKN
󱋓,0xf12d3,UKN
𫥨,0x2b968,UKN
󰞺,0xf07ba,UKN
󱋓,0xf12d3,UKN
󰖌,0xf058c,UKN
𫥨,0x2b968,UKN
󰞺,0xf07ba,UKN
󰠐,0xf0810,UKN
󰎡,0xf03a1,UKN
󰠐,0xf0810,UKN
𫢩,0x2b8a9,UKN
𫥨,0x2b968,UKN
󰣞,0xf08de,UKN
𫥨,0x2b968,UKN
󰝂,0xf0742,UKN
󰘂,0xf0602,UKN
𫥨,0x2b968,UKN
𫢋,0x2b88b,UKN
𫥨,0x2b968,UKN
󰖌,0xf058c,UKN
𫢋,0x2b88b,UKN
󰜗,0xf0717,UKN
𬮌,0x2cb8c,UKN
𬮦,0x2cba6,UKN
𫥨,0x2b968,UKN
󰜏,0xf070f,UKN
𫥨,0x2b968,UKN
𫴋,0x2bd0b,UKN
󰞺,0xf07ba,UKN
󰇀,0xf01c0,UKN
𫨩,0x2ba29,UKN
󰘂,0xf0602,UKN
𫥨,0x2b968,UKN
𬲄,0x2cc84,UKN
𬲃,0x2cc83,UKN
󰍹,0xf0379,UKN
󰁇,0xf0047,UKN
𫥨,0x2b968,UKN
󱋓,0xf12d3,UKN
󰜏,0xf070f,UKN
󰋇,0xf02c7,UKN
󱋓,0xf12d3,UKN
󰜏,0xf070f,UKN
󰋇,0xf02c7,UKN
𫥨,0x2b968,UKN
󰟯,0xf07ef,UKN
𫥨,0x2b968,UKN
𫢋,0x2b88b,UKN
𬷤,0x2cde4,UKN
𬮌,0x2cb8c,UKN
𮗓,0x2e5d3,UKN
𫥨,0x2b968,UKN
𭛣,0x2d6e3,UKN
󰈯,0xf022f,UKN
󰘂,0xf0602,UKN
𮗓,0x2e5d3,UKN
󰟯,0xf07ef,UKN
𮗓,0x2e5d3,UKN
󰘂,0xf0602,UKN
𫢋,0x2b88b,UKN
󰟯,0xf07ef,UKN
𫮇,0x2bb87,UKN
󰜏,0xf070f,UKN
𭓇,0x2d4c7,UKN
󰜏,0xf070f,UKN
󰚷,0xf06b7,UKN
𬮙,0x2cb99,UKN
𭁈,0x2d048,UKN
󰘂,0xf0602,UKN
󰠃,0xf0803,UKN
𫥨,0x2b968,UKN
𫴋,0x2bd0b,UKN
󰅒,0xf0152,UKN
𫥨,0x2b968,UKN
󰝂,0xf0742,UKN
𫥨,0x2b968,UKN
󰋇,0xf02c7,UKN
𫥨,0x2b968,UKN
𬌓,0x2c313,UKN
𫨩,0x2ba29,UKN
󰋇,0xf02c7,UKN
𫥨,0x2b968,UKN
𫨩,0x2ba29,UKN
𬮙,0x2cb99,UKN
󰛐,0xf06d0,UKN
𫢩,0x2b8a9,UKN
𫥨,0x2b968,UKN
𬮙,0x2cb99,UKN
𬌓,0x2c313,UKN
󰋇,0xf02c7,UKN
𫥨,0x2b968,UKN
𫼳,0x2bf33,UKN
󰍹,0xf0379,UKN
𬫤,0x2cae4,UKN
󰖁,0xf0581,UKN
𫥨,0x2b968,UKN
󰘂,0xf0602,UKN
𫨩,0x2ba29,UKN
𬏝,0x2c3dd,UKN
𬌓,0x2c313,UKN
󰖁,0xf0581,UKN
𫥨,0x2b968,UKN
󰋇,0xf02c7,UKN
󰝂,0xf0742,UKN
𫥨,0x2b968,UKN
󰝂,0xf0742,UKN
󰘂,0xf0602,UKN
󰚔,0xf0694,UKN
󰠖,0xf0816,UKN
󰒂,0xf0482,UKN
󰜏,0xf070f,UKN
󰒂,0xf0482,UKN
󰠐,0xf0810,UKN
𬌓,0x2c313,UKN
󰋇,0xf02c7,UKN
󰟱,0xf07f1,UKN
󰝂,0xf0742,UKN
𫥨,0x2b968,UKN
󰜏,0xf070f,UKN
󰋇,0xf02c7,UKN
󰞻,0xf07bb,UKN
󰜏,0xf070f,UKN
󰘂,0xf0602,UKN
𫯳,0x2bbf3,UKN
𫥨,0x2b968,UKN
𫴋,0x2bd0b,UKN
𬆄,0x2c184,UKN
󰘂,0xf0602,UKN
󰜏,0xf070f,UKN
𫴋,0x2bd0b,UKN
𫨩,0x2ba29,UKN
𬮙,0x2cb99,UKN
󰋇,0xf02c7,UKN
𮗓,0x2e5d3,UKN
󰋇,0xf02c7,UKN
󰅒,0xf0152,UKN
𫨩,0x2ba29,UKN
󰒂,0xf0482,UKN
𮗓,0x2e5d3,UKN
󰟯,0xf07ef,UKN
𫥨,0x2b968,UKN
󰝂,0xf0742,UKN
󰒂,0xf0482,UKN
󰅒,0xf0152,UKN
𭛣,0x2d6e3,UKN
𬮙,0x2cb99,UKN
𭛣,0x2d6e3,UKN
󰣱,0xf08f1,UKN
𫥨,0x2b968,UKN
𫢩,0x2b8a9,UKN
𫥨,0x2b968,UKN
𭛣,0x2d6e3,UKN
󰡫,0xf086b,UKN
𫥨,0x2b968,UKN
󰡫,0xf086b,UKN
𭉑,0x2d251,UKN
𭛣,0x2d6e3,UKN
𫥨,0x2b968,UKN
󰘂,0xf0602,UKN
󰡫,0xf086b,UKN
𫴋,0x2bd0b,UKN
𫥨,0x2b968,UKN
𫨩,0x2ba29,UKN
󰁇,0xf0047,UKN
󰝂,0xf0742,UKN
𫥨,0x2b968,UKN
𬮙,0x2cb99,UKN
𬏝,0x2c3dd,UKN
󱋓,0xf12d3,UKN
𫥨,0x2b968,UKN
𫴋,0x2bd0b,UKN
𫨩,0x2ba29,UKN
𬆄,0x2c184,UKN
𫴋,0x2bd0b,UKN
𬌓,0x2c313,UKN
󰞺,0xf07ba,UKN
𫥨,0x2b968,UKN
𫨩,0x2ba29,UKN
𬮌,0x2cb8c,UKN
𫥨,0x2b968,UKN
󰊾,0xf02be,UKN
𫯳,0x2bbf3,UKN
𬌓,0x2c313,UKN
󰝂,0xf0742,UKN
𫴋,0x2bd0b,UKN
𫼳,0x2bf33,UKN
󰡫,0xf086b,UKN
𫨩,0x2ba29,UKN
󰋇,0xf02c7,UKN
󰅒,0xf0152,UKN
𮗓,0x2e5d3,UKN
󰜏,0xf070f,UKN
𫥨,0x2b968,UKN
𫼳,0x2bf33,UKN
󰝂,0xf0742,UKN
𫨩,0x2ba29,UKN
𮗓,0x2e5d3,UKN
󰒂,0xf0482,UKN
𮗓,0x2e5d3,UKN
󰋇,0xf02c7,UKN
𫴋,0x2bd0b,UKN
𬗢,0x2c5e2,UKN
𮗓,0x2e5d3,UKN
󰋇,0xf02c7,UKN
𬌓,0x2c313,UKN
𫥨,0x2b968,UKN
𬁑,0x2c051,UKN
𬮙,0x2cb99,UKN
𫢩,0x2b8a9,UKN
󰟯,0xf07ef,UKN
𫥨,0x2b968,UKN
󰜏,0xf070f,UKN
𫥨,0x2b968,UKN
󰟯,0xf07ef,UKN
𫥨,0x2b968,UKN
󰒂,0xf0482,UKN
𫺴,0x2beb4,UKN
󰋇,0xf02c7,UKN
𫥨,0x2b968,UKN
󰋇,0xf02c7,UKN
󰜏,0xf070f,UKN
𫥨,0x2b968,UKN
󰋈,0xf02c8,UKN
󰒂,0xf0482,UKN
𫥨,0x2b968,UKN
𫯳,0x2bbf3,UKN
󰋇,0xf02c7,UKN
𫥨,0x2b968,UKN
󰜏,0xf070f,UKN
𬌓,0x2c313,UKN
󰋇,0xf02c7,UKN
󰍹,0xf0379,UKN
𫥨,0x2b968,UKN
𫨩,0x2ba29,UKN
󰜩,0xf0729,UKN
𫥨,0x2b968,UKN
󰋇,0xf02c7,UKN
󰘂,0xf0602,UKN
󰒂,0xf0482,UKN
𫥨,0x2b968,UKN
𬮦,0x2cba6,UKN
𬛩,0x2c6e9,UKN
𫥨,0x2b968,UKN
𭓇,0x2d4c7,UKN
󰜏,0xf070f,UKN
󰖌,0xf058c,UKN
𫥨,0x2b968,UKN
󰒂,0xf0482,UKN
𫯳,0x2bbf3,UKN
𬮙,0x2cb99,UKN
󰋇,0xf02c7,UKN
𫥨,0x2b968,UKN
󰋇,0xf02c7,UKN
󰡫,0xf086b,UKN
𮗓,0x2e5d3,UKN
𫯳,0x2bbf3,UKN
󰟯,0xf07ef,UKN
󰘂,0xf0602,UKN
𫢋,0x2b88b,UKN
𮗓,0x2e5d3,UKN
𫢋,0x2b88b,UKN
𮗓,0x2e5d3,UKN
𫥨,0x2b968,UKN
󰖌,0xf058c,UKN
𬑉,0x2c449,UKN
󰜏,0xf070f,UKN
𫥨,0x2b968,UKN
𫢋,0x2b88b,UKN
𬌓,0x2c313,UKN
𫢩,0x2b8a9,UKN
󰝂,0xf0742,UKN
𫨩,0x2ba29,UKN
󰒂,0xf0482,UKN
𫥨,0x2b968,UKN
𫢋,0x2b88b,UKN
𫥨,0x2b968,UKN
󱋓,0xf12d3,UKN
𫽻,0x2bf7b,UKN
󰝂,0xf0742,UKN
𬙞,0x2c65e,UKN
𬁖,0x2c056,UKN
𫯳,0x2bbf3,UKN
󰋇,0xf02c7,UKN
󰝂,0xf0742,UKN
𫨩,0x2ba29,UKN
󰘂,0xf0602,UKN
󰝂,0xf0742,UKN
𫥨,0x2b968,UKN
𫢩,0x2b8a9,UKN
󰜏,0xf070f,UKN
𬙞,0x2c65e,UKN
󰟯,0xf07ef,UKN
𫢩,0x2b8a9,UKN
󰖌,0xf058c,UKN
󱋓,0xf12d3,UKN
󰋇,0xf02c7,UKN
󰘂,0xf0602,UKN
𫨩,0x2ba29,UKN
𬮙,0x2cb99,UKN
𫥨,0x2b968,UKN
󰋇,0xf02c7,UKN
󰟯,0xf07ef,UKN
𫢩,0x2b8a9,UKN
󰞺,0xf07ba,UKN
󰣴,0xf08f4,UKN
󰋇,0xf02c7,UKN
󰟯,0xf07ef,UKN
𫢩,0x2b8a9,UKN
󰞺,0xf07ba,UKN
󰣴,0xf08f4,UKN
󰋇,0xf02c7,UKN
𫨩,0x2ba29,UKN
𫢩,0x2b8a9,UKN
𫨩,0x2ba29,UKN
𬷤,0x2cde4,UKN
𫨩,0x2ba29,UKN
󱋓,0xf12d3,UKN
𮗓,0x2e5d3,UKN
󰘂,0xf0602,UKN
󰇼,0xf01fc,UKN
󰘂,0xf0602,UKN
𬮙,0x2cb99,UKN
𫼳,0x2bf33,UKN
󰥎,0xf094e,UKN
󰑼,0xf047c,UKN
󱉎,0xf124e,UKN
󰉲,0xf0272,UKN
󰑼,0xf047c,UKN
󰘉,0xf0609,UKN
󰘂,0xf0602,UKN
󰥎,0xf094e,UKN
󰑼,0xf047c,UKN
󰝸,0xf0778,UKN
󰡰,0xf0870,UKN
󰝡,0xf0761,UKN
󰝸,0xf0778,UKN
󰲹,0xf0cb9,UKN
󰑼,0xf047c,UKN
󰑚,0xf045a,UKN
󰑼,0xf047c,UKN
󱉎,0xf124e,UKN
󰑼,0xf047c,UKN
󰲺,0xf0cba,UKN
󰝸,0xf0778,UKN
󰥎,0xf094e,UKN
󰀡,0xf0021,UKN
󰑼,0xf047c,UKN
󰑾,0xf047e,UKN
󰝸,0xf0778,UKN
󰘚,0xf061a,UKN
󰑼,0xf047c,UKN
󰑾,0xf047e,UKN
󰋇,0xf02c7,UKN
󰝸,0xf0778,UKN
󰑾,0xf047e,UKN
󱎣,0xf13a3,UKN
󰑼,0xf047c,UKN
󰀢,0xf0022,UKN
󰝡,0xf0761,UKN
󰑼,0xf047c,UKN
󰉟,0xf025f,UKN
󰑼,0xf047c,UKN
󰉟,0xf025f,UKN
󰝸,0xf0778,UKN
󰳀,0xf0cc0,UKN
󰠃,0xf0803,UKN
󰳁,0xf0cc1,UKN
󰘚,0xf061a,UKN
[,0x5b,UKN
?,0x3f,UKN
],0x5d,UKN
󰘚,0xf061a,UKN
󰑍,0xf044d,UKN
󰑼,0xf047c,UKN
󰠃,0xf0803,UKN
󰅒,0xf0152,UKN
󰑼,0xf047c,UKN
󰝸,0xf0778,UKN
󰑼,0xf047c,UKN
󰝡,0xf0761,UKN
󰂇,0xf0087,UKN
󰝸,0xf0778,UKN
󰑼,0xf047c,UKN
󰝸,0xf0778,UKN
󰌵,0xf0335,UKN
󰠃,0xf0803,UKN
󰅒,0xf0152,UKN
󰒂,0xf0482,UKN
󰑼,0xf047c,UKN
󰠃,0xf0803,UKN
󰝸,0xf0778,UKN
󰑼,0xf047c,UKN
󰅒,0xf0152,UKN
󰘚,0xf061a,UKN
󰝸,0xf0778,UKN
󰞺,0xf07ba,UKN
󰑼,0xf047c,UKN
󰘚,0xf061a,UKN
󰑼,0xf047c,UKN
󰒂,0xf0482,UKN
󰑼,0xf047c,UKN
󰝸,0xf0778,UKN
󰒂,0xf0482,UKN
󰘚,0xf061a,UKN
󰠃,0xf0803,UKN
󰑼,0xf047c,UKN
?,0x3f,UKN
󰒂,0xf0482,UKN
󰡫,0xf086b,UKN
󰝸,0xf0778,UKN
󰟴,0xf07f4,UKN
󰡞,0xf085e,UKN
󰒂,0xf0482,UKN
󰑼,0xf047c,UKN
󰠱,0xf0831,UKN
󰠃,0xf0803,UKN
󰠵,0xf0835,UKN
󱓨,0xf14e8,UKN
󰠃,0xf0803,UKN
󰡫,0xf086b,UKN
󰒂,0xf0482,UKN
󰘌,0xf060c,UKN
󰘚,0xf061a,UKN
󰑼,0xf047c,UKN
󰠃,0xf0803,UKN
󱖺,0xf15ba,UKN
󰠃,0xf0803,UKN
󰑼,0xf047c,UKN
󰡎,0xf084e,UKN
󰠃,0xf0803,UKN
󰠓,0xf0813,UKN
󰠩,0xf0829,UKN
󰠵,0xf0835,UKN
󰒂,0xf0482,UKN
󰑼,0xf047c,UKN
󰠃,0xf0803,UKN
󰖆,0xf0586,UKN
󰠃,0xf0803,UKN
󰉨,0xf0268,UKN
󰒂,0xf0482,UKN
󰠃,0xf0803,UKN
󰉹,0xf0279,UKN
󰑼,0xf047c,UKN
󰒂,0xf0482,UKN
󰲍,0xf0c8d,UKN
󰌎,0xf030e,UKN
󰁇,0xf0047,UKN
󰠵,0xf0835,UKN
󰠩,0xf0829,UKN
󰠃,0xf0803,UKN
󱋓,0xf12d3,UKN
󰀃,0xf0003,UKN
󰀢,0xf0022,UKN
󰠲,0xf0832,UKN
󰑼,0xf047c,UKN
󰠃,0xf0803,UKN
󰦓,0xf0993,UKN
󰝸,0xf0778,UKN
󰎡,0xf03a1,UKN
󰝸,0xf0778,UKN
󰡫,0xf086b,UKN
󰠃,0xf0803,UKN
󰀉,0xf0009,UKN
󰁏,0xf004f,UKN
󰉲,0xf0272,UKN
󰑚,0xf045a,UKN
󰑼,0xf047c,UKN
󱉎,0xf124e,UKN
󰇾,0xf01fe,UKN
󰉲,0xf0272,UKN
󰲺,0xf0cba,UKN
󱃨,0xf10e8,UKN
󰉲,0xf0272,UKN
󰓳,0xf04f3,UKN
󰠵,0xf0835,UKN
󱖺,0xf15ba,UKN
󰻩,0xf0ee9,UKN
󱖺,0xf15ba,UKN
󰻩,0xf0ee9,UKN
󰠲,0xf0832,UKN
󰡎,0xf084e,UKN
󰠩,0xf0829,UKN
󰠃,0xf0803,UKN
󰑼,0xf047c,UKN
󰪟,0xf0a9f,UKN
󰠯,0xf082f,UKN
󰦓,0xf0993,UKN
󰝂,0xf0742,UKN
󰡠,0xf0860,UKN
󰞿,0xf07bf,UKN
󰆕,0xf0195,UKN
󰉺,0xf027a,UKN
󰺔,0xf0e94,UKN
󰝶,0xf0776,UKN
󰀩,0xf0029,UKN
󱏹,0xf13f9,UKN
󰓞,0xf04de,UKN
󰦓,0xf0993,UKN
󰘩,0xf0629,UKN
󰦓,0xf0993,UKN
󰑾,0xf047e,UKN
󰠃,0xf0803,UKN
󰦓,0xf0993,UKN
󰠃,0xf0803,UKN
󰘩,0xf0629,UKN
󰘊,0xf060a,UKN
󰑾,0xf047e,UKN
󰡫,0xf086b,UKN
󰦓,0xf0993,UKN
󰂌,0xf008c,UKN
󰀒,0xf0012,UKN
󰡸,0xf0878,UKN
󰑼,0xf047c,UKN
󰘉,0xf0609,UKN
󰦓,0xf0993,UKN
󰡫,0xf086b,UKN
󱋓,0xf12d3,UKN
󰑾,0xf047e,UKN
󰑼,0xf047c,UKN
󰑾,0xf047e,UKN
󰑼,0xf047c,UKN
󰦓,0xf0993,UKN
󰑾,0xf047e,UKN
󰠃,0xf0803,UKN
󰑾,0xf047e,UKN
󰉨,0xf0268,UKN
󰠲,0xf0832,UKN
󰑼,0xf047c,UKN
󰦓,0xf0993,UKN
󰑼,0xf047c,UKN
󰥶,0xf0976,UKN
󰘉,0xf0609,UKN
󰟭,0xf07ed,UKN
󰠲,0xf0832,UKN
󰉺,0xf027a,UKN
󰑾,0xf047e,UKN
󰡫,0xf086b,UKN
󰟴,0xf07f4,UKN
󰝡,0xf0761,UKN
󰘉,0xf0609,UKN
󰡫,0xf086b,UKN
󰉨,0xf0268,UKN
󰠃,0xf0803,UKN
󰲲,0xf0cb2,UKN
󰡫,0xf086b,UKN
󰠃,0xf0803,UKN
󰦄,0xf0984,UKN
󰠃,0xf0803,UKN
󰒂,0xf0482,UKN
󰠃,0xf0803,UKN
󰦓,0xf0993,UKN
󰒜,0xf049c,UKN
󱏹,0xf13f9,UKN
󰑼,0xf047c,UKN
󰝡,0xf0761,UKN
󰠃,0xf0803,UKN
󰲳,0xf0cb3,UKN
󰘉,0xf0609,UKN
󰉺,0xf027a,UKN
󰑼,0xf047c,UKN
󰲴,0xf0cb4,UKN
󰡎,0xf084e,UKN
󰑼,0xf047c,UKN
󱃨,0xf10e8,UKN
󰒂,0xf0482,UKN
󰉹,0xf0279,UKN
󰝂,0xf0742,UKN
[,0x5b,UKN
],0x5d,UKN
󰉨,0xf0268,UKN
󰑼,0xf047c,UKN
󰦓,0xf0993,UKN
󰠃,0xf0803,UKN
󰉹,0xf0279,UKN
󰥎,0xf094e,UKN
󰠐,0xf0810,UKN
󰁍,0xf004d,UKN
󰑼,0xf047c,UKN
󰒂,0xf0482,UKN
󰥎,0xf094e,UKN
󰋇,0xf02c7,UKN
󰦓,0xf0993,UKN
󰘉,0xf0609,UKN
󰒂,0xf0482,UKN
󰓗,0xf04d7,UKN
󰋇,0xf02c7,UKN
󰝺,0xf077a,UKN
󰑼,0xf047c,UKN
󰝺,0xf077a,UKN
󰥎,0xf094e,UKN
󰝡,0xf0761,UKN
󰡎,0xf084e,UKN
󰝡,0xf0761,UKN
󰦓,0xf0993,UKN
󰉨,0xf0268,UKN
󰝺,0xf077a,UKN
󰝡,0xf0761,UKN
󰦓,0xf0993,UKN
󰀎,0xf000e,UKN
󰲵,0xf0cb5,UKN
󰝺,0xf077a,UKN
󰌎,0xf030e,UKN
󰉺,0xf027a,UKN
󰑼,0xf047c,UKN
󰝡,0xf0761,UKN
󰟴,0xf07f4,UKN
󰲶,0xf0cb6,UKN
󰦓,0xf0993,UKN
󰉨,0xf0268,UKN
󰋇,0xf02c7,UKN
󰠡,0xf0821,UKN
󰠃,0xf0803,UKN
󰉨,0xf0268,UKN
󰭊,0xf0b4a,UKN
󰒺,0xf04ba,UKN
󰠱,0xf0831,UKN
󰠃,0xf0803,UKN
󰥎,0xf094e,UKN
󰑼,0xf047c,UKN
󰥎,0xf094e,UKN
󰠡,0xf0821,UKN
󰠩,0xf0829,UKN
󰦓,0xf0993,UKN
󰺔,0xf0e94,UKN
󰡰,0xf0870,UKN
󰠡,0xf0821,UKN
󰝺,0xf077a,UKN
󰝡,0xf0761,UKN
󰠃,0xf0803,UKN
󰣞,0xf08de,UKN
󰦓,0xf0993,UKN
󰉨,0xf0268,UKN
󰒂,0xf0482,UKN
󰍹,0xf0379,UKN
󰉓,0xf0253,UKN
󰋇,0xf02c7,UKN
󰀩,0xf0029,UKN
󰠐,0xf0810,UKN
󰇾,0xf01fe,UKN
󰠃,0xf0803,UKN
󰉺,0xf027a,UKN
󰑼,0xf047c,UKN
󰒂,0xf0482,UKN
󰠃,0xf0803,UKN
󰑼,0xf047c,UKN
󰦓,0xf0993,UKN
󰑼,0xf047c,UKN
󰟴,0xf07f4,UKN
󰑼,0xf047c,UKN
󰘚,0xf061a,UKN
󰁮,0xf006e,UKN
󰝸,0xf0778,UKN
󰝡,0xf0761,UKN
󰑼,0xf047c,UKN
󰘂,0xf0602,UKN
󰝡,0xf0761,UKN
󰠓,0xf0813,UKN
󰉨,0xf0268,UKN
󰠃,0xf0803,UKN
󰝡,0xf0761,UKN
󰒂,0xf0482,UKN
󰦓,0xf0993,UKN
󰑼,0xf047c,UKN
󰦓,0xf0993,UKN
󰋇,0xf02c7,UKN
󰠃,0xf0803,UKN
󰜋,0xf070b,UKN
󰲼,0xf0cbc,UKN
󰉺,0xf027a,UKN
󰋇,0xf02c7,UKN
󰑼,0xf047c,UKN
󰝡,0xf0761,UKN
󰦓,0xf0993,UKN
󱖺,0xf15ba,UKN
󰑼,0xf047c,UKN
󰝡,0xf0761,UKN
󰜋,0xf070b,UKN
󰑼,0xf047c,UKN
󰠃,0xf0803,UKN
󰜋,0xf070b,UKN
󰡶,0xf0876,UKN
󱖺,0xf15ba,UKN
󰋇,0xf02c7,UKN
󰑼,0xf047c,UKN
󰦓,0xf0993,UKN
󰉺,0xf027a,UKN
󰝺,0xf077a,UKN
󰒂,0xf0482,UKN
󰀩,0xf0029,UKN
󰳄,0xf0cc4,UKN
󰋞,0xf02de,UKN
󰝡,0xf0761,UKN
󰉨,0xf0268,UKN
󰘌,0xf060c,UKN
󰁍,0xf004d,UKN
󰑼,0xf047c,UKN
󱏹,0xf13f9,UKN
󰦓,0xf0993,UKN
󰇾,0xf01fe,UKN
󰒺,0xf04ba,UKN
󰑼,0xf047c,UKN
󰡫,0xf086b,UKN
󰑼,0xf047c,UKN
󰉨,0xf0268,UKN
󰞹,0xf07b9,UKN
󰝡,0xf0761,UKN
󰉨,0xf0268,UKN
󰋇,0xf02c7,UKN
󰦓,0xf0993,UKN
󰉺,0xf027a,UKN
󰡫,0xf086b,UKN
󰑼,0xf047c,UKN
󰦓,0xf0993,UKN
󰋇,0xf02c7,UKN
󰆀,0xf0180,UKN
󰥎,0xf094e,UKN
󰋇,0xf02c7,UKN
󰘚,0xf061a,UKN
󰠵,0xf0835,UKN
󰑼,0xf047c,UKN
󰦓,0xf0993,UKN
󰘂,0xf0602,UKN
󰝡,0xf0761,UKN
󰑼,0xf047c,UKN
󰉺,0xf027a,UKN
󰠃,0xf0803,UKN
󰝸,0xf0778,UKN
󰖽,0xf05bd,UKN
󰑼,0xf047c,UKN
󰅒,0xf0152,UKN
󰦓,0xf0993,UKN
󰑼,0xf047c,UKN
󰒺,0xf04ba,UKN
󰋇,0xf02c7,UKN
󰜫,0xf072b,UKN
󰳃,0xf0cc3,UKN
󰠃,0xf0803,UKN
󰜏,0xf070f,UKN
󰋇,0xf02c7,UKN
󰝡,0xf0761,UKN
󱋓,0xf12d3,UKN
󰦓,0xf0993,UKN
󰝡,0xf0761,UKN
󰦓,0xf0993,UKN
󰲽,0xf0cbd,UKN
󰠃,0xf0803,UKN
󰒂,0xf0482,UKN
󰘚,0xf061a,UKN
󰑼,0xf047c,UKN
󰠃,0xf0803,UKN
󰝡,0xf0761,UKN
󰠃,0xf0803,UKN
󰠵,0xf0835,UKN
󱔚,0xf151a,UKN
󰞹,0xf07b9,UKN
󰞺,0xf07ba,UKN
󰉟,0xf025f,UKN
󰦓,0xf0993,UKN
[,0x5b,UKN
?,0x3f,UKN
],0x5d,UKN
󰀩,0xf0029,UKN
󰲾,0xf0cbe,UKN
󰘚,0xf061a,UKN
󰣉,0xf08c9,UKN
󰑼,0xf047c,UKN
󰋇,0xf02c7,UKN
󰁍,0xf004d,UKN
󰑼,0xf047c,UKN
󰠓,0xf0813,UKN
󰑼,0xf047c,UKN
󰠃,0xf0803,UKN
󰦓,0xf0993,UKN
󰡫,0xf086b,UKN
󰝡,0xf0761,UKN
󰑼,0xf047c,UKN
󰉨,0xf0268,UKN
󰝡,0xf0761,UKN
󱋓,0xf12d3,UKN
󰂇,0xf0087,UKN
󰉨,0xf0268,UKN
󰠃,0xf0803,UKN
󰠐,0xf0810,UKN
󰲿,0xf0cbf,UKN
󰠐,0xf0810,UKN
󰘚,0xf061a,UKN
󰡫,0xf086b,UKN
󰑼,0xf047c,UKN
󰮇,0xf0b87,UKN
󰑼,0xf047c,UKN
󰮇,0xf0b87,UKN
󰕔,0xf0554,UKN
󰑼,0xf047c,UKN
󰻛,0xf0edb,UKN
󰑼,0xf047c,UKN
󰘚,0xf061a,UKN
󰝡,0xf0761,UKN
󰋇,0xf02c7,UKN
󰟁,0xf07c1,UKN
󰀩,0xf0029,UKN
󰠃,0xf0803,UKN
󰝡,0xf0761,UKN
󰠩,0xf0829,UKN
󰝡,0xf0761,UKN
󰠐,0xf0810,UKN
󰦓,0xf0993,UKN
󰠃,0xf0803,UKN
󱖺,0xf15ba,UKN
󰦓,0xf0993,UKN
󰠃,0xf0803,UKN
󰉨,0xf0268,UKN
󰘚,0xf061a,UKN
󰂇,0xf0087,UKN
󰠃,0xf0803,UKN
󰝡,0xf0761,UKN
󰉨,0xf0268,UKN
󰘚,0xf061a,UKN
󰉨,0xf0268,UKN
󰝡,0xf0761,UKN
󰋇,0xf02c7,UKN
󰠃,0xf0803,UKN
󱓨,0xf14e8,UKN
󰉨,0xf0268,UKN
󰡸,0xf0878,UKN
